,route,businessType,node_type,time_buck,old_count,new_count,p
0,AGRP1-BHCP1,Industrial,?,>=60,1,1,100.0
1,AGRP1-BHCP1,Industrial,TOLL,10-20,1,1,100.0
2,AGRP1-BHCP1,Industrial,TOLL,>=60,1,1,100.0
3,AGRP1-BOMP2,Green,?,10-20,2,2,100.0
4,AGRP1-BOMP2,Green,?,20-40,1,1,100.0
5,AGRP1-BOMP2,Green,?,40-60,1,1,100.0
6,AGRP1-BOMP2,Green,FUEL_PUMP,10-20,1,0,0.0
7,AGRP1-BOMP2,Green,TOLL,10-20,1,1,100.0
8,AGRP1-BOMP2,Green,UNS,10-20,1,0,0.0
9,AGRP1-BOMP2,Industrial,?,10-20,4,3,75.0
10,AGRP1-BOMP2,Industrial,CHECKPOST,>=60,1,1,100.0
11,AGRP1-BOMP2,Industrial,TOLL,10-20,1,0,0.0
12,AGRP1-BOMP2,Industrial,UNS,10-20,1,1,100.0
13,AGRP1-NPWP1,Green,?,10-20,2,1,50.0
14,AGRP1-NPWP1,Green,?,20-40,4,4,100.0
15,AGRP1-NPWP1,Green,?,40-60,2,2,100.0
16,AGRP1-NPWP1,Green,?,5-10,1,1,100.0
17,AGRP1-NPWP1,Green,CHECKPOST,>=60,1,1,100.0
18,AGRP1-NPWP1,Green,TOLL,10-20,2,1,50.0
19,AGRP1-NPWP1,Green,UNS,40-60,1,1,100.0
20,AMBP1-AMDP1,Industrial,?,10-20,1,0,0.0
21,AMBP1-AMDP1,Industrial,FUEL_PUMP,20-40,1,0,0.0
22,AMBP1-AMDP1,Industrial,UNS,5-10,1,0,0.0
23,AMBP1-AMDP1,Zoom,TOLL,10-20,1,1,100.0
24,AMBP1-AUBP1,Green,?,10-20,4,4,100.0
25,AMBP1-AUBP1,Green,UNS,10-20,1,0,0.0
26,AMBP1-AUBP1,Green,UNS,<5,1,0,0.0
27,AMBP1-BLRP1,Green,?,10-20,1,0,0.0
28,AMBP1-BLRP1,Green,?,20-40,2,2,100.0
29,AMBP1-BLRP1,Green,CHECKPOST,40-60,1,0,0.0
30,AMBP1-BLRP1,Green,FUEL_PUMP,20-40,1,0,0.0
31,AMBP1-BLRP1,Green,TOLL,40-60,1,0,0.0
32,AMBP1-BLRP1,Green,TOLL,5-10,1,0,0.0
33,AMBP1-BLRP1,Green,UNS,10-20,1,1,100.0
34,AMBP1-BLRP1,Green,UNS,<5,1,0,0.0
35,AMBP1-BLRP1,Industrial,?,10-20,1,1,100.0
36,AMBP1-BLRP1,Industrial,?,20-40,1,1,100.0
37,AMBP1-BLRP1,Industrial,?,>=60,1,1,100.0
38,AMBP1-BLRP1,Industrial,CHECKPOST,10-20,2,0,0.0
39,AMBP1-BLRP1,Industrial,FUEL_PUMP,>=60,1,1,100.0
40,AMBP1-BLRP1,Industrial,TOLL,10-20,2,0,0.0
41,AMBP1-BLRP1,Industrial,TOLL,20-40,1,1,100.0
42,AMBP1-BLRP1,Industrial,TOLL,5-10,1,0,0.0
43,AMBP1-BLRP1,Industrial,TOLL,<5,1,0,0.0
44,AMBP1-BLRP2,Zoom,?,10-20,1,0,0.0
45,AMBP1-BLRP2,Zoom,CHECKPOST,10-20,1,0,0.0
46,AMBP1-BLRP2,Zoom,CHECKPOST,20-40,1,1,100.0
47,AMBP1-BLRP2,Zoom,CHECKPOST,40-60,1,1,100.0
48,AMBP1-BLRP2,Zoom,FUEL_PUMP,20-40,2,1,50.0
49,AMBP1-BLRP2,Zoom,FUEL_PUMP,5-10,1,0,0.0
50,AMBP1-BLRP2,Zoom,TOLL,10-20,3,1,33.333333333333336
51,AMBP1-BLRP2,Zoom,TOLL,20-40,3,2,66.66666666666667
52,AMBP1-BLRP2,Zoom,UNS,<5,1,0,0.0
53,AMBP1-BOMP1,Industrial,?,10-20,1,0,0.0
54,AMBP1-BOMP1,Industrial,FUEL_PUMP,20-40,1,0,0.0
55,AMBP1-BOMP1,Zoom,TOLL,5-10,1,0,0.0
56,AMBP1-CCUP1,Industrial,?,10-20,7,6,85.71428571428571
57,AMBP1-CCUP1,Industrial,?,20-40,2,2,100.0
58,AMBP1-CCUP1,Industrial,?,5-10,1,0,0.0
59,AMBP1-CCUP1,Industrial,?,<5,1,0,0.0
60,AMBP1-CCUP1,Industrial,?,>=60,2,2,100.0
61,AMBP1-CCUP1,Industrial,CHECKPOST,10-20,1,0,0.0
62,AMBP1-CCUP1,Industrial,FUEL_PUMP,40-60,1,1,100.0
63,AMBP1-CCUP1,Industrial,TOLL,10-20,1,0,0.0
64,AMBP1-CCUP1,Industrial,UNS,10-20,3,3,100.0
65,AMBP1-CCUP1,Industrial,UNS,<5,1,0,0.0
66,AMBP1-CCUP1,Zoom,?,10-20,2,2,100.0
67,AMBP1-CCUP1,Zoom,?,20-40,2,1,50.0
68,AMBP1-CCUP1,Zoom,TOLL,10-20,2,0,0.0
69,AMBP1-CCUP1,Zoom,UNS,10-20,1,1,100.0
70,AMBP1-CCUP1,Zoom,UNS,20-40,1,0,0.0
71,AMBP1-GAUP1,Industrial,?,10-20,2,2,100.0
72,AMBP1-GAUP1,Industrial,?,40-60,1,1,100.0
73,AMBP1-GAUP1,Industrial,?,>=60,1,1,100.0
74,AMBP1-GAUP1,Industrial,TOLL,10-20,2,0,0.0
75,AMBP1-GAUP1,Industrial,UNS,10-20,1,1,100.0
76,AMBP1-GAUP1,Industrial,UNS,20-40,1,1,100.0
77,AMBP1-HYDP1,Green,?,10-20,1,1,100.0
78,AMBP1-HYDP1,Green,?,20-40,2,2,100.0
79,AMBP1-HYDP1,Green,CHECKPOST,20-40,1,0,0.0
80,AMBP1-HYDP1,Green,FUEL_PUMP,10-20,1,0,0.0
81,AMBP1-HYDP1,Green,FUEL_PUMP,20-40,1,0,0.0
82,AMBP1-HYDP1,Green,TOLL,10-20,1,0,0.0
83,AMBP1-HYDP1,Green,TOLL,20-40,2,0,0.0
84,AMBP1-HYDP1,Green,UNS,10-20,2,2,100.0
85,AMBP1-HYDP1,Industrial,?,10-20,1,1,100.0
86,AMBP1-HYDP1,Industrial,?,40-60,1,1,100.0
87,AMBP1-HYDP1,Industrial,CHECKPOST,20-40,2,1,50.0
88,AMBP1-HYDP1,Industrial,CHECKPOST,40-60,1,1,100.0
89,AMBP1-HYDP1,Industrial,FUEL_PUMP,10-20,1,0,0.0
90,AMBP1-HYDP1,Industrial,TOLL,10-20,2,0,0.0
91,AMBP1-HYDP1,Industrial,TOLL,<5,1,0,0.0
92,AMBP1-HYDP1,Industrial,UNS,10-20,1,1,100.0
93,AMBP1-HYDP1,Zoom,CHECKPOST,10-20,1,0,0.0
94,AMBP1-HYDP1,Zoom,CHECKPOST,20-40,2,0,0.0
95,AMBP1-HYDP1,Zoom,FUEL_PUMP,20-40,1,0,0.0
96,AMBP1-IXWP1,Industrial,?,10-20,2,2,100.0
97,AMBP1-IXWP1,Industrial,TOLL,20-40,1,1,100.0
98,AMBP1-KNUP1,Zoom,?,20-40,1,1,100.0
99,AMBP1-KNUP1,Zoom,?,<5,1,0,0.0
100,AMBP1-KNUP1,Zoom,FUEL_PUMP,5-10,1,1,100.0
101,AMBP1-KNUP1,Zoom,TOLL,20-40,1,1,100.0
102,AMBP1-KNUP1,Zoom,TOLL,5-10,1,0,0.0
103,AMBP1-MAAP1,Green,?,20-40,1,1,100.0
104,AMBP1-MAAP1,Green,UNS,20-40,1,0,0.0
105,AMBP1-MAAP1,Industrial,?,10-20,5,5,100.0
106,AMBP1-MAAP1,Industrial,?,20-40,4,4,100.0
107,AMBP1-MAAP1,Industrial,?,>=60,5,5,100.0
108,AMBP1-MAAP1,Industrial,CHECKPOST,10-20,1,0,0.0
109,AMBP1-MAAP1,Industrial,CHECKPOST,20-40,5,1,20.0
110,AMBP1-MAAP1,Industrial,FUEL_PUMP,40-60,1,0,0.0
111,AMBP1-MAAP1,Industrial,TOLL,10-20,5,0,0.0
112,AMBP1-MAAP1,Industrial,TOLL,20-40,4,0,0.0
113,AMBP1-MAAP1,Industrial,TOLL,<5,2,0,0.0
114,AMBP1-MAAP1,Industrial,UNS,10-20,4,1,25.0
115,AMBP1-MAAP1,Industrial,UNS,20-40,2,1,50.0
116,AMBP1-MAAP1,Industrial,UNS,40-60,1,1,100.0
117,AMBP1-MAAP1,Industrial,UNS,5-10,1,1,100.0
118,AMBP1-MAAP1,Industrial,UNS,<5,1,0,0.0
119,AMBP1-MAAP1,Zoom,?,10-20,6,5,83.33333333333333
120,AMBP1-MAAP1,Zoom,?,>=60,2,2,100.0
121,AMBP1-MAAP1,Zoom,CHECKPOST,20-40,1,0,0.0
122,AMBP1-MAAP1,Zoom,CHECKPOST,40-60,1,1,100.0
123,AMBP1-MAAP1,Zoom,FUEL_PUMP,40-60,1,0,0.0
124,AMBP1-MAAP1,Zoom,TOLL,10-20,1,0,0.0
125,AMBP1-MAAP1,Zoom,TOLL,20-40,1,0,0.0
126,AMBP1-MAAP1,Zoom,UNS,10-20,1,0,0.0
127,AMBP1-MAAP1,Zoom,UNS,40-60,1,1,100.0
128,AMBP1-MAAP1,Zoom,UNS,<5,2,0,0.0
129,AMBP1-MAQP1,Industrial,CHECKPOST,10-20,1,0,0.0
130,AMBP1-MAQP1,Industrial,FUEL_PUMP,10-20,1,1,100.0
131,AMBP1-MAQP1,Industrial,TOLL,10-20,1,0,0.0
132,AMBP1-MAQP1,Industrial,TOLL,5-10,1,0,0.0
133,AMBP1-MAQP1,Industrial,UNS,20-40,1,1,100.0
134,AMBP1-PNQP1,Industrial,?,10-20,1,1,100.0
135,AMBP1-PNQP1,Industrial,?,20-40,1,1,100.0
136,AMBP1-PNQP1,Industrial,?,40-60,1,1,100.0
137,AMBP1-PNQP1,Industrial,CHECKPOST,10-20,2,1,50.0
138,AMBP1-PNQP1,Industrial,CHECKPOST,20-40,2,0,0.0
139,AMBP1-PNQP1,Industrial,TOLL,10-20,1,0,0.0
140,AMBP1-PNQP1,Industrial,TOLL,20-40,2,0,0.0
141,AMBP1-PNQP1,Industrial,UNS,20-40,1,1,100.0
142,AMBP1-PNQP1,Industrial,UNS,5-10,1,0,0.0
143,AMBP1-SXVP1,Industrial,?,20-40,1,1,100.0
144,AMBP1-SXVP1,Industrial,?,40-60,1,1,100.0
145,AMBP1-SXVP1,Industrial,PITSTOP,>=60,1,1,100.0
146,AMBP1-SXVP1,Industrial,UNS,10-20,2,2,100.0
147,AMBP1-SXVP1,Industrial,UNS,20-40,1,1,100.0
148,AMBP1-SXVP1,Industrial,UNS,>=60,1,1,100.0
149,AMBP1-SXVP1,Zoom,?,10-20,1,1,100.0
150,AMBP1-SXVP1,Zoom,CHECKPOST,20-40,1,0,0.0
151,AMBP1-SXVP1,Zoom,FUEL_PUMP,10-20,1,1,100.0
152,AMBP1-SXVP1,Zoom,TOLL,10-20,1,1,100.0
153,AMBP1-SXVP1,Zoom,TOLL,20-40,1,0,0.0
154,AMBP1-SXVP1,Zoom,UNS,10-20,2,1,50.0
155,AMBP1-SXVP1,Zoom,UNS,20-40,1,1,100.0
156,AMBP1-SXVP1,Zoom,UNS,>=60,1,1,100.0
157,AMBP1-VGAP1,Industrial,?,10-20,1,1,100.0
158,AMBP1-VGAP1,Industrial,?,20-40,1,1,100.0
159,AMBP1-VGAP1,Industrial,?,<5,1,0,0.0
160,AMBP1-VGAP1,Industrial,?,>=60,2,2,100.0
161,AMBP1-VGAP1,Industrial,TOLL,>=60,1,1,100.0
162,AMBP1-VGAP1,Industrial,UNS,10-20,1,0,0.0
163,AMDP1-AMBP1,Green,UNS,10-20,1,0,0.0
164,AMDP1-BHCP1,Industrial,?,20-40,2,2,100.0
165,AMDP1-BHCP1,Industrial,?,5-10,1,1,100.0
166,AMDP1-BLRP1,Green,?,10-20,1,1,100.0
167,AMDP1-BLRP2,Zoom,TOLL,10-20,1,0,0.0
168,AMDP1-BLRP2,Zoom,UNS,10-20,1,1,100.0
169,AMDP1-BOMP1,Green,?,20-40,1,1,100.0
170,AMDP1-BOMP1,Green,UNS,10-20,1,1,100.0
171,AMDP1-BOMP1,Green,UNS,20-40,1,1,100.0
172,AMDP1-CCUP1,Industrial,?,10-20,2,1,50.0
173,AMDP1-CCUP1,Industrial,?,20-40,1,1,100.0
174,AMDP1-CCUP1,Zoom,?,10-20,1,1,100.0
175,AMDP1-CCUP1,Zoom,?,20-40,3,3,100.0
176,AMDP1-CCUP1,Zoom,?,40-60,1,1,100.0
177,AMDP1-CCUP1,Zoom,CHECKPOST,10-20,1,0,0.0
178,AMDP1-CCUP1,Zoom,FUEL_PUMP,20-40,2,1,50.0
179,AMDP1-CCUP1,Zoom,TOLL,10-20,2,1,50.0
180,AMDP1-CCUP1,Zoom,UNS,10-20,3,2,66.66666666666667
181,AMDP1-CCUP1,Zoom,UNS,20-40,3,3,100.0
182,AMDP1-DELP1,Zoom,TOLL,10-20,1,1,100.0
183,AMDP1-DELP1,Zoom,UNS,10-20,3,3,100.0
184,AMDP1-DELP1,Zoom,UNS,20-40,1,1,100.0
185,AMDP1-GAUP1,Industrial,?,10-20,4,4,100.0
186,AMDP1-GAUP1,Industrial,?,20-40,4,3,75.0
187,AMDP1-GAUP1,Industrial,TOLL,20-40,1,1,100.0
188,AMDP1-GAUP1,Industrial,TOLL,5-10,1,0,0.0
189,AMDP1-GAUP1,Industrial,UNS,10-20,2,1,50.0
190,AMDP1-HYDP1,Green,?,5-10,1,0,0.0
191,AMDP1-HYDP1,Green,FUEL_PUMP,10-20,1,0,0.0
192,AMDP1-HYDP1,Green,TOLL,10-20,1,1,100.0
193,AMDP1-HYDP1,Green,TOLL,20-40,1,0,0.0
194,AMDP1-HYDP1,Green,UNS,10-20,3,2,66.66666666666667
195,AMDP1-HYDP1,Green,UNS,20-40,1,1,100.0
196,AMDP1-HYDP1,Green,UNS,>=60,1,1,100.0
197,AMDP1-HYDP1,Industrial,TOLL,10-20,1,1,100.0
198,AMDP1-HYDP1,Industrial,TOLL,>=60,1,1,100.0
199,AMDP1-HYDP1,Zoom,?,10-20,1,1,100.0
200,AMDP1-HYDP1,Zoom,?,40-60,1,1,100.0
201,AMDP1-HYDP1,Zoom,FUEL_PUMP,10-20,1,0,0.0
202,AMDP1-HYDP1,Zoom,UNS,10-20,1,0,0.0
203,AMDP1-HYDP1,Zoom,UNS,20-40,2,2,100.0
204,AMDP1-MAAP1,Green,?,10-20,1,1,100.0
205,AMDP1-MAAP1,Green,CHECKPOST,20-40,2,2,100.0
206,AMDP1-MAAP1,Green,FUEL_PUMP,10-20,1,1,100.0
207,AMDP1-MAAP1,Green,UNS,10-20,1,1,100.0
208,AMDP1-MAAP1,Industrial,CHECKPOST,10-20,1,0,0.0
209,AMDP1-MAAP1,Industrial,FUEL_PUMP,10-20,1,1,100.0
210,AMDP1-MAAP1,Industrial,FUEL_PUMP,>=60,2,1,50.0
211,AMDP1-MAAP1,Industrial,PITSTOP,10-20,1,1,100.0
212,AMDP1-MAAP1,Industrial,TOLL,10-20,5,5,100.0
213,AMDP1-MAAP1,Industrial,TOLL,5-10,1,1,100.0
214,AMDP1-MAAP1,Industrial,UNS,10-20,5,4,80.0
215,AMDP1-MAAP1,Industrial,UNS,20-40,4,4,100.0
216,AMDP1-MAAP1,Industrial,UNS,>=60,1,1,100.0
217,AMDP1-MAAP1,Zoom,FUEL_PUMP,20-40,1,0,0.0
218,AMDP1-MAAP1,Zoom,TOLL,10-20,1,0,0.0
219,AMDP1-MAAP1,Zoom,UNS,20-40,1,1,100.0
220,AMDP1-NPWP1,Green,?,10-20,1,1,100.0
221,AMDP1-NPWP1,Green,UNS,10-20,1,1,100.0
222,AMDP1-SXVP1,Zoom,FUEL_PUMP,>=60,1,1,100.0
223,AMDP1-SXVP1,Zoom,TOLL,10-20,1,1,100.0
224,AMDP1-SXVP1,Zoom,TOLL,20-40,1,1,100.0
225,AMDP1-SXVP1,Zoom,TOLL,40-60,1,1,100.0
226,AMDP1-SXVP1,Zoom,UNS,10-20,2,1,50.0
227,AUBP1-RPRP1,Industrial,UNS,>=60,1,1,100.0
228,BDQP1-AMBP1,Industrial,?,10-20,1,1,100.0
229,BDQP1-AMBP1,Industrial,?,5-10,1,0,0.0
230,BDQP1-DELP1,Industrial,?,10-20,2,2,100.0
231,BDQP1-DELP1,Industrial,?,20-40,2,2,100.0
232,BDQP1-DELP1,Industrial,PITSTOP,10-20,1,1,100.0
233,BDQP1-DELP1,Industrial,PITSTOP,20-40,1,1,100.0
234,BDQP1-DELP1,Industrial,TOLL,10-20,3,1,33.333333333333336
235,BDQP1-DELP1,Industrial,TOLL,5-10,1,0,0.0
236,BDQP1-DELP1,Industrial,UNS,10-20,5,5,100.0
237,BDQP1-DELP1,Industrial,UNS,20-40,2,2,100.0
238,BDQP1-MAAP1,Industrial,?,10-20,1,1,100.0
239,BDQP1-MAAP1,Industrial,FUEL_PUMP,20-40,1,0,0.0
240,BDQP1-MAAP1,Industrial,PITSTOP,10-20,1,1,100.0
241,BDQP1-MAAP1,Industrial,PITSTOP,5-10,1,1,100.0
242,BDQP1-MAAP1,Industrial,TOLL,5-10,1,1,100.0
243,BDQP1-MAAP1,Industrial,UNS,5-10,2,0,0.0
244,BDQP1-PGHP1,Industrial,?,10-20,1,1,100.0
245,BDQP1-PGHP1,Industrial,TOLL,10-20,1,0,0.0
246,BHCP1-BOMP1,Industrial,TOLL,5-10,1,0,0.0
247,BLRP1-AMBP1,Industrial,?,20-40,1,0,0.0
248,BLRP1-AMBP1,Industrial,?,<5,2,1,50.0
249,BLRP1-AMBP1,Industrial,CHECKPOST,10-20,2,0,0.0
250,BLRP1-AMBP1,Industrial,CHECKPOST,20-40,4,0,0.0
251,BLRP1-AMBP1,Industrial,CHECKPOST,<5,1,0,0.0
252,BLRP1-AMBP1,Industrial,FUEL_PUMP,20-40,1,0,0.0
253,BLRP1-AMBP1,Industrial,TOLL,10-20,3,0,0.0
254,BLRP1-AMBP1,Industrial,TOLL,20-40,5,1,20.0
255,BLRP1-AMBP1,Industrial,TOLL,<5,3,0,0.0
256,BLRP1-AMBP1,Industrial,UNS,10-20,4,3,75.0
257,BLRP1-AMBP1,Industrial,UNS,20-40,2,2,100.0
258,BLRP1-AMBP1,Zoom,?,10-20,1,1,100.0
259,BLRP1-AMBP1,Zoom,?,20-40,1,1,100.0
260,BLRP1-AMBP1,Zoom,?,5-10,1,1,100.0
261,BLRP1-AMBP1,Zoom,?,>=60,1,1,100.0
262,BLRP1-AMBP1,Zoom,CHECKPOST,10-20,1,0,0.0
263,BLRP1-AMBP1,Zoom,UNS,<5,1,0,0.0
264,BLRP1-AMDP1,Green,?,20-40,1,1,100.0
265,BLRP1-AMDP1,Green,TOLL,10-20,1,1,100.0
266,BLRP1-AMDP1,Green,UNS,10-20,1,1,100.0
267,BLRP1-AMDP1,Industrial,FUEL_PUMP,20-40,1,0,0.0
268,BLRP1-AMDP1,Industrial,TOLL,5-10,1,1,100.0
269,BLRP1-AMDP1,Industrial,UNS,10-20,1,1,100.0
270,BLRP1-AMDP1,Industrial,UNS,>=60,1,1,100.0
271,BLRP1-BHCP1,Industrial,UNS,10-20,1,1,100.0
272,BLRP1-BOMP1,Ecom,TOLL,10-20,2,1,50.0
273,BLRP1-BOMP1,Ecom,TOLL,20-40,1,1,100.0
274,BLRP1-BOMP1,Ecom,UNS,10-20,2,0,0.0
275,BLRP1-BOMP1,Ecom,UNS,20-40,1,1,100.0
276,BLRP1-BOMP1,Industrial,CHECKPOST,10-20,1,0,0.0
277,BLRP1-BOMP1,Industrial,FUEL_PUMP,40-60,1,0,0.0
278,BLRP1-BOMP1,Zoom,TOLL,10-20,3,2,66.66666666666667
279,BLRP1-CCUP1,Ecom,?,20-40,1,1,100.0
280,BLRP1-CCUP1,Ecom,FUEL_PUMP,20-40,1,0,0.0
281,BLRP1-CCUP1,Ecom,UNS,10-20,1,1,100.0
282,BLRP1-CCUP1,Ecom,UNS,20-40,3,3,100.0
283,BLRP1-CCUP1,Green,?,20-40,1,1,100.0
284,BLRP1-CCUP1,Green,?,5-10,2,1,50.0
285,BLRP1-CCUP1,Green,TOLL,5-10,1,0,0.0
286,BLRP1-CCUP1,Green,UNS,40-60,1,1,100.0
287,BLRP1-CCUP1,Industrial,?,20-40,1,1,100.0
288,BLRP1-CCUP1,Industrial,UNS,10-20,1,1,100.0
289,BLRP1-CCUP1,Zoom,?,10-20,1,1,100.0
290,BLRP1-CCUP1,Zoom,?,20-40,1,1,100.0
291,BLRP1-CCUP1,Zoom,UNS,10-20,1,0,0.0
292,BLRP1-CCUP1,Zoom,UNS,20-40,1,1,100.0
293,BLRP1-DELP1,Ecom,?,20-40,2,2,100.0
294,BLRP1-DELP1,Ecom,?,40-60,1,1,100.0
295,BLRP1-DELP1,Ecom,CHECKPOST,10-20,1,0,0.0
296,BLRP1-DELP1,Ecom,FUEL_PUMP,20-40,1,1,100.0
297,BLRP1-DELP1,Ecom,PITSTOP,10-20,1,1,100.0
298,BLRP1-DELP1,Ecom,TOLL,20-40,1,1,100.0
299,BLRP1-DELP1,Industrial,?,10-20,2,1,50.0
300,BLRP1-DELP1,Industrial,?,20-40,2,2,100.0
301,BLRP1-DELP1,Industrial,?,40-60,1,1,100.0
302,BLRP1-DELP1,Industrial,?,>=60,1,1,100.0
303,BLRP1-DELP1,Industrial,CHECKPOST,10-20,1,0,0.0
304,BLRP1-DELP1,Industrial,CHECKPOST,20-40,2,0,0.0
305,BLRP1-DELP1,Industrial,CHECKPOST,40-60,1,1,100.0
306,BLRP1-DELP1,Industrial,FUEL_PUMP,20-40,1,0,0.0
307,BLRP1-DELP1,Industrial,PITSTOP,20-40,1,1,100.0
308,BLRP1-DELP1,Industrial,TOLL,10-20,2,1,50.0
309,BLRP1-DELP1,Industrial,TOLL,20-40,5,3,60.0
310,BLRP1-DELP1,Industrial,UNS,10-20,2,0,0.0
311,BLRP1-DELP1,Industrial,UNS,5-10,1,0,0.0
312,BLRP1-DELP1,Industrial,UNS,<5,1,0,0.0
313,BLRP1-DELP1,Zoom,?,10-20,1,1,100.0
314,BLRP1-DELP1,Zoom,?,>=60,1,1,100.0
315,BLRP1-DELP1,Zoom,CHECKPOST,20-40,2,0,0.0
316,BLRP1-DELP1,Zoom,TOLL,10-20,1,0,0.0
317,BLRP1-DELP1,Zoom,TOLL,20-40,1,0,0.0
318,BLRP1-DELP1,Zoom,UNS,10-20,1,0,0.0
319,BLRP1-DELP1,Zoom,UNS,20-40,1,0,0.0
320,BLRP1-GAUP1,Industrial,?,10-20,2,2,100.0
321,BLRP1-GAUP1,Industrial,?,20-40,2,2,100.0
322,BLRP1-GAUP1,Industrial,?,40-60,1,1,100.0
323,BLRP1-GAUP1,Industrial,?,>=60,1,1,100.0
324,BLRP1-GAUP1,Industrial,CHECKPOST,5-10,1,0,0.0
325,BLRP1-GAUP1,Industrial,TOLL,10-20,1,1,100.0
326,BLRP1-GAUP1,Industrial,UNS,10-20,2,2,100.0
327,BLRP1-HYDP1,Ecom,UNS,10-20,1,1,100.0
328,BLRP1-HYDP1,Industrial,TOLL,10-20,1,1,100.0
329,BLRP1-HYDP1,Industrial,TOLL,20-40,3,1,33.333333333333336
330,BLRP1-HYDP1,Industrial,UNS,5-10,1,0,0.0
331,BLRP1-IDRP1,Industrial,?,10-20,1,1,100.0
332,BLRP1-IDRP1,Industrial,TOLL,10-20,1,0,0.0
333,BLRP1-IDRP1,Industrial,TOLL,20-40,2,1,50.0
334,BLRP1-IDRP1,Industrial,TOLL,5-10,1,0,0.0
335,BLRP1-IDRP1,Industrial,TOLL,>=60,1,1,100.0
336,BLRP1-IDRP1,Industrial,UNS,10-20,2,0,0.0
337,BLRP1-IDRP1,Industrial,UNS,20-40,2,2,100.0
338,BLRP1-IDRP1,Industrial,UNS,5-10,1,0,0.0
339,BLRP1-MAAP1,Ecom,UNS,10-20,1,1,100.0
340,BLRP1-NAGP1,Industrial,UNS,5-10,1,0,0.0
341,BLRP1-PGHP1,Industrial,?,20-40,1,1,100.0
342,BLRP1-PGHP1,Industrial,PITSTOP,>=60,1,1,100.0
343,BLRP1-PGHP1,Industrial,TOLL,10-20,5,1,20.0
344,BLRP1-PGHP1,Industrial,TOLL,20-40,2,1,50.0
345,BLRP1-PGHP1,Industrial,TOLL,>=60,1,1,100.0
346,BLRP1-PGHP1,Industrial,UNS,20-40,1,1,100.0
347,BLRP1-PNQP1,Industrial,?,10-20,1,1,100.0
348,BLRP1-PNQP1,Industrial,?,>=60,1,1,100.0
349,BLRP1-PNQP1,Industrial,PITSTOP,10-20,1,1,100.0
350,BLRP1-PNQP1,Industrial,PITSTOP,>=60,1,1,100.0
351,BLRP1-PNQP1,Industrial,TOLL,10-20,3,2,66.66666666666667
352,BLRP1-PNQP1,Industrial,TOLL,40-60,1,1,100.0
353,BLRP1-PNQP1,Industrial,UNS,10-20,2,2,100.0
354,BLRP1-RPRP1,Industrial,?,10-20,1,1,100.0
355,BLRP1-RPRP1,Industrial,?,20-40,1,1,100.0
356,BLRP1-RPRP1,Industrial,TOLL,10-20,1,0,0.0
357,BLRP1-RPRP1,Industrial,UNS,10-20,1,1,100.0
358,BLRP1-RPRP1,Industrial,UNS,5-10,1,0,0.0
359,BLRP1-VGAP1,Industrial,?,10-20,1,1,100.0
360,BLRP1-VGAP1,Industrial,?,5-10,1,1,100.0
361,BLRP2-AMBP1,Industrial,TOLL,20-40,3,1,33.333333333333336
362,BLRP2-AMBP1,Industrial,UNS,10-20,2,2,100.0
363,BLRP2-AMBP1,Zoom,CHECKPOST,10-20,1,0,0.0
364,BLRP2-AMBP1,Zoom,CHECKPOST,<5,1,0,0.0
365,BLRP2-AMBP1,Zoom,TOLL,10-20,1,0,0.0
366,BLRP2-AMBP1,Zoom,UNS,10-20,1,0,0.0
367,BLRP2-AMDP1,Zoom,?,10-20,1,1,100.0
368,BLRP2-AMDP1,Zoom,CHECKPOST,10-20,1,0,0.0
369,BLRP2-AMDP1,Zoom,CHECKPOST,<5,1,0,0.0
370,BLRP2-AMDP1,Zoom,FUEL_PUMP,20-40,1,0,0.0
371,BLRP2-AMDP1,Zoom,TOLL,10-20,1,1,100.0
372,BLRP2-AMDP1,Zoom,UNS,<5,1,0,0.0
373,BLRP2-BOMP1,Industrial,FUEL_PUMP,20-40,1,0,0.0
374,BLRP2-BOMP1,Industrial,TOLL,20-40,1,1,100.0
375,BLRP2-BOMP1,Industrial,TOLL,5-10,1,1,100.0
376,BLRP2-BOMP1,Zoom,PITSTOP,>=60,1,1,100.0
377,BLRP2-DELP1,Zoom,FUEL_PUMP,10-20,1,1,100.0
378,BLRP2-DELP1,Zoom,TOLL,20-40,1,1,100.0
379,BLRP2-DELP1,Zoom,TOLL,<5,1,0,0.0
380,BLRP2-DELP1,Zoom,UNS,10-20,1,0,0.0
381,BLRP2-GAUP1,Industrial,?,10-20,6,6,100.0
382,BLRP2-GAUP1,Industrial,?,20-40,3,3,100.0
383,BLRP2-GAUP1,Industrial,?,40-60,2,2,100.0
384,BLRP2-GAUP1,Industrial,?,5-10,2,2,100.0
385,BLRP2-GAUP1,Industrial,?,<5,2,0,0.0
386,BLRP2-GAUP1,Industrial,?,>=60,1,1,100.0
387,BLRP2-GAUP1,Industrial,TOLL,20-40,1,0,0.0
388,BLRP2-GAUP1,Industrial,TOLL,5-10,1,0,0.0
389,BLRP2-GAUP1,Industrial,TOLL,<5,2,0,0.0
390,BLRP2-HYDP1,Zoom,TOLL,20-40,1,1,100.0
391,BLRP2-MAQP1,Zoom,UNS,10-20,1,1,100.0
392,BLRP2-PGHP1,Industrial,?,10-20,1,0,0.0
393,BLRP2-PGHP1,Industrial,TOLL,10-20,1,1,100.0
394,BLRP2-PGHP1,Industrial,TOLL,20-40,2,0,0.0
395,BLRP2-PGHP1,Industrial,UNS,20-40,1,1,100.0
396,BLRP2-PNQP1,Zoom,TOLL,10-20,1,1,100.0
397,BLRP2-PNQP1,Zoom,UNS,10-20,2,1,50.0
398,BLRP2-PNQP1,Zoom,UNS,5-10,1,0,0.0
399,BLSP1-AMBP1,Industrial,?,10-20,5,3,60.0
400,BLSP1-AMBP1,Industrial,?,20-40,1,1,100.0
401,BLSP1-AMBP1,Industrial,?,40-60,2,2,100.0
402,BLSP1-AMBP1,Industrial,FUEL_PUMP,10-20,1,0,0.0
403,BLSP1-AMBP1,Industrial,FUEL_PUMP,20-40,1,1,100.0
404,BLSP1-AMBP1,Industrial,TOLL,10-20,1,0,0.0
405,BLSP1-AMBP1,Industrial,TOLL,20-40,2,1,50.0
406,BLSP1-AMBP1,Industrial,UNS,10-20,3,0,0.0
407,BLSP1-AMDP1,Industrial,?,10-20,1,1,100.0
408,BLSP1-AMDP1,Industrial,?,20-40,2,2,100.0
409,BLSP1-AMDP1,Industrial,?,40-60,1,1,100.0
410,BLSP1-BLRP1,Industrial,?,10-20,6,6,100.0
411,BLSP1-BLRP1,Industrial,?,20-40,1,1,100.0
412,BLSP1-BLRP1,Industrial,?,5-10,1,0,0.0
413,BLSP1-BLRP1,Industrial,?,>=60,1,1,100.0
414,BLSP1-BLRP1,Industrial,FUEL_PUMP,40-60,1,1,100.0
415,BLSP1-BLRP1,Industrial,TOLL,10-20,5,0,0.0
416,BLSP1-BLRP1,Industrial,TOLL,20-40,2,2,100.0
417,BLSP1-BLRP1,Industrial,UNS,10-20,3,2,66.66666666666667
418,BLSP1-BLRP1,Industrial,UNS,20-40,4,4,100.0
419,BLSP1-BLRP1,Industrial,UNS,5-10,2,2,100.0
420,BLSP1-BLRP1,Industrial,UNS,>=60,1,1,100.0
421,BLSP1-BOMP1,Industrial,?,10-20,3,3,100.0
422,BLSP1-BOMP1,Industrial,?,20-40,1,1,100.0
423,BLSP1-BOMP1,Industrial,TOLL,10-20,1,1,100.0
424,BLSP1-BOMP1,Industrial,TOLL,20-40,1,1,100.0
425,BLSP1-BOMP2,Industrial,?,10-20,1,1,100.0
426,BLSP1-BOMP2,Industrial,TOLL,>=60,1,1,100.0
427,BLSP1-DELP1,Industrial,?,10-20,5,4,80.0
428,BLSP1-DELP1,Industrial,?,20-40,1,1,100.0
429,BLSP1-DELP1,Industrial,?,5-10,2,2,100.0
430,BLSP1-DELP1,Industrial,?,>=60,1,1,100.0
431,BLSP1-DELP1,Industrial,CHECKPOST,10-20,1,1,100.0
432,BLSP1-DELP1,Industrial,FUEL_PUMP,20-40,1,0,0.0
433,BLSP1-DELP1,Industrial,TOLL,10-20,2,0,0.0
434,BLSP1-DELP1,Industrial,UNS,20-40,4,3,75.0
435,BLSP1-DELP1,Industrial,UNS,40-60,1,1,100.0
436,BLSP1-HYDP1,Industrial,?,10-20,1,1,100.0
437,BLSP1-HYDP1,Industrial,?,20-40,1,1,100.0
438,BLSP1-HYDP1,Industrial,?,<5,1,1,100.0
439,BLSP1-HYDP1,Industrial,TOLL,10-20,1,0,0.0
440,BLSP1-HYDP1,Industrial,TOLL,20-40,1,1,100.0
441,BLSP1-HYDP1,Industrial,TOLL,5-10,2,1,50.0
442,BLSP1-HYDP1,Industrial,UNS,10-20,1,1,100.0
443,BLSP1-HYDP1,Industrial,UNS,20-40,1,1,100.0
444,BLSP1-HYDP1,Industrial,UNS,<5,1,1,100.0
445,BLSP1-IDRP1,Industrial,?,10-20,5,4,80.0
446,BLSP1-IDRP1,Industrial,?,5-10,1,0,0.0
447,BLSP1-IDRP1,Industrial,?,<5,2,0,0.0
448,BLSP1-IDRP1,Industrial,TOLL,10-20,1,1,100.0
449,BLSP1-IDRP1,Industrial,TOLL,<5,1,0,0.0
450,BLSP1-NJPP1,Industrial,?,10-20,2,1,50.0
451,BLSP1-NJPP1,Industrial,?,20-40,1,0,0.0
452,BLSP1-VAPP1,Industrial,?,10-20,1,1,100.0
453,BLSP1-VAPP1,Industrial,TOLL,>=60,1,1,100.0
454,BOMP1-AMBP1,Zoom,UNS,10-20,1,1,100.0
455,BOMP1-AMBP1,Zoom,UNS,20-40,1,1,100.0
456,BOMP1-AMBP1,Zoom,UNS,5-10,1,0,0.0
457,BOMP1-BLRP1,Ecom,FUEL_PUMP,40-60,1,0,0.0
458,BOMP1-BLRP1,Ecom,TOLL,10-20,1,1,100.0
459,BOMP1-BLRP1,Ecom,UNS,10-20,1,1,100.0
460,BOMP1-BLRP1,Green,CHECKPOST,<5,1,0,0.0
461,BOMP1-BLRP1,Green,FUEL_PUMP,>=60,1,1,100.0
462,BOMP1-BLRP1,Industrial,?,10-20,1,1,100.0
463,BOMP1-BLRP1,Industrial,?,>=60,1,1,100.0
464,BOMP1-BLRP1,Industrial,CHECKPOST,10-20,1,0,0.0
465,BOMP1-BLRP1,Industrial,CHECKPOST,5-10,2,0,0.0
466,BOMP1-BLRP1,Industrial,FUEL_PUMP,10-20,1,0,0.0
467,BOMP1-BLRP1,Industrial,FUEL_PUMP,20-40,4,0,0.0
468,BOMP1-BLRP1,Industrial,FUEL_PUMP,40-60,2,0,0.0
469,BOMP1-BLRP1,Industrial,PITSTOP,20-40,1,1,100.0
470,BOMP1-BLRP1,Industrial,TOLL,10-20,4,1,25.0
471,BOMP1-BLRP1,Industrial,TOLL,20-40,2,2,100.0
472,BOMP1-BLRP1,Industrial,TOLL,<5,1,0,0.0
473,BOMP1-BLRP1,Industrial,TOLL,>=60,1,1,100.0
474,BOMP1-BLRP1,Industrial,UNS,10-20,7,4,57.142857142857146
475,BOMP1-BLRP1,Industrial,UNS,20-40,3,3,100.0
476,BOMP1-BLRP1,Industrial,UNS,40-60,1,1,100.0
477,BOMP1-BLRP1,Industrial,UNS,<5,1,0,0.0
478,BOMP1-BLRP1,Industrial,UNS,>=60,1,1,100.0
479,BOMP1-BLRP2,Ecom,?,10-20,3,3,100.0
480,BOMP1-BLRP2,Ecom,FUEL_PUMP,20-40,1,0,0.0
481,BOMP1-BLRP2,Ecom,FUEL_PUMP,40-60,1,0,0.0
482,BOMP1-BLRP2,Ecom,TOLL,10-20,3,2,66.66666666666667
483,BOMP1-BLRP2,Ecom,TOLL,5-10,2,1,50.0
484,BOMP1-BLRP2,Zoom,?,40-60,1,1,100.0
485,BOMP1-BLRP2,Zoom,FUEL_PUMP,40-60,2,0,0.0
486,BOMP1-BLRP2,Zoom,TOLL,10-20,1,0,0.0
487,BOMP1-CCUP1,Industrial,?,10-20,2,1,50.0
488,BOMP1-CCUP1,Industrial,?,20-40,3,3,100.0
489,BOMP1-CCUP1,Industrial,?,5-10,1,1,100.0
490,BOMP1-CCUP1,Industrial,TOLL,10-20,1,1,100.0
491,BOMP1-CCUP1,Industrial,UNS,10-20,1,1,100.0
492,BOMP1-CCUP1,Zoom,?,10-20,1,0,0.0
493,BOMP1-CCUP1,Zoom,TOLL,10-20,2,2,100.0
494,BOMP1-CCUP1,Zoom,UNS,>=60,1,1,100.0
495,BOMP1-DELP1,Green,?,10-20,2,1,50.0
496,BOMP1-DELP1,Green,TOLL,20-40,3,2,66.66666666666667
497,BOMP1-DELP1,Green,TOLL,5-10,1,1,100.0
498,BOMP1-DELP1,Green,UNS,10-20,2,0,0.0
499,BOMP1-DELP1,Green,UNS,20-40,1,1,100.0
500,BOMP1-DELP1,Industrial,?,10-20,5,4,80.0
501,BOMP1-DELP1,Industrial,?,20-40,3,3,100.0
502,BOMP1-DELP1,Industrial,CHECKPOST,10-20,2,0,0.0
503,BOMP1-DELP1,Industrial,FUEL_PUMP,5-10,1,0,0.0
504,BOMP1-DELP1,Industrial,TOLL,10-20,2,0,0.0
505,BOMP1-DELP1,Industrial,TOLL,20-40,1,1,100.0
506,BOMP1-DELP1,Industrial,UNS,10-20,5,3,60.0
507,BOMP1-DELP1,Industrial,UNS,20-40,1,1,100.0
508,BOMP1-DELP1,Industrial,UNS,5-10,1,0,0.0
509,BOMP1-DELP1,Industrial,UNS,>=60,1,1,100.0
510,BOMP1-DELP1,Zoom,?,10-20,2,2,100.0
511,BOMP1-DELP1,Zoom,FUEL_PUMP,5-10,1,0,0.0
512,BOMP1-DELP1,Zoom,TOLL,10-20,1,0,0.0
513,BOMP1-DELP1,Zoom,TOLL,5-10,1,0,0.0
514,BOMP1-DELP1,Zoom,UNS,10-20,2,1,50.0
515,BOMP1-DELP1,Zoom,UNS,>=60,1,1,100.0
516,BOMP1-GAUP1,Zoom,?,<5,1,0,0.0
517,BOMP1-GAUP1,Zoom,CHECKPOST,10-20,1,0,0.0
518,BOMP1-GAUP1,Zoom,CHECKPOST,40-60,1,0,0.0
519,BOMP1-GAUP1,Zoom,TOLL,10-20,2,0,0.0
520,BOMP1-GAUP1,Zoom,UNS,10-20,2,2,100.0
521,BOMP1-GAUP1,Zoom,UNS,20-40,1,1,100.0
522,BOMP1-HYDP1,Green,FUEL_PUMP,10-20,1,0,0.0
523,BOMP1-HYDP1,Green,FUEL_PUMP,20-40,1,0,0.0
524,BOMP1-HYDP1,Green,UNS,10-20,2,2,100.0
525,BOMP1-HYDP1,Green,UNS,40-60,1,1,100.0
526,BOMP1-HYDP1,Industrial,?,10-20,1,1,100.0
527,BOMP1-HYDP1,Industrial,UNS,10-20,1,0,0.0
528,BOMP1-HYDP1,Industrial,UNS,5-10,1,0,0.0
529,BOMP1-HYDP1,Industrial,UNS,>=60,1,1,100.0
530,BOMP1-HYDP1,Zoom,?,20-40,1,1,100.0
531,BOMP1-HYDP1,Zoom,TOLL,<5,1,0,0.0
532,BOMP1-HYDP1,Zoom,UNS,10-20,1,0,0.0
533,BOMP1-JAIP1,Zoom,UNS,20-40,1,1,100.0
534,BOMP1-KNUP1,Industrial,?,10-20,2,2,100.0
535,BOMP1-KNUP1,Industrial,?,20-40,3,2,66.66666666666667
536,BOMP1-KNUP1,Industrial,?,40-60,1,1,100.0
537,BOMP1-KNUP1,Industrial,CHECKPOST,20-40,1,0,0.0
538,BOMP1-KNUP1,Industrial,CHECKPOST,40-60,1,0,0.0
539,BOMP1-KNUP1,Industrial,CHECKPOST,5-10,2,0,0.0
540,BOMP1-KNUP1,Industrial,TOLL,10-20,2,1,50.0
541,BOMP1-KNUP1,Industrial,TOLL,40-60,1,1,100.0
542,BOMP1-KNUP1,Industrial,TOLL,5-10,1,0,0.0
543,BOMP1-KNUP1,Industrial,UNS,20-40,3,2,66.66666666666667
544,BOMP1-KNUP1,Industrial,UNS,40-60,1,1,100.0
545,BOMP1-MAAP1,Green,CHECKPOST,<5,1,0,0.0
546,BOMP1-MAAP1,Green,FUEL_PUMP,>=60,1,1,100.0
547,BOMP1-MAAP1,Green,UNS,10-20,2,2,100.0
548,BOMP1-MAAP1,Green,UNS,5-10,2,1,50.0
549,BOMP1-MAAP1,Industrial,TOLL,10-20,2,1,50.0
550,BOMP1-MAAP1,Industrial,TOLL,20-40,1,1,100.0
551,BOMP1-MAAP1,Industrial,TOLL,5-10,1,0,0.0
552,BOMP1-MAAP1,Industrial,TOLL,<5,1,0,0.0
553,BOMP1-MAAP1,Industrial,UNS,5-10,1,1,100.0
554,BOMP1-MAAP1,Zoom,?,5-10,1,1,100.0
555,BOMP1-MAAP1,Zoom,CHECKPOST,10-20,1,1,100.0
556,BOMP1-MAAP1,Zoom,FUEL_PUMP,40-60,1,0,0.0
557,BOMP1-MAAP1,Zoom,PITSTOP,40-60,1,1,100.0
558,BOMP1-MAAP1,Zoom,TOLL,10-20,1,0,0.0
559,BOMP1-MAAP1,Zoom,TOLL,20-40,1,0,0.0
560,BOMP1-MAAP1,Zoom,TOLL,5-10,2,0,0.0
561,BOMP1-MAAP1,Zoom,UNS,<5,1,0,0.0
562,BOMP1-NPWP1,Ecom,FUEL_PUMP,40-60,1,0,0.0
563,BOMP1-PGHP1,Industrial,?,10-20,4,4,100.0
564,BOMP1-PGHP1,Industrial,?,20-40,2,2,100.0
565,BOMP1-PGHP1,Industrial,?,>=60,1,1,100.0
566,BOMP1-PGHP1,Industrial,CHECKPOST,20-40,1,0,0.0
567,BOMP1-PGHP1,Industrial,CHECKPOST,40-60,1,0,0.0
568,BOMP1-PGHP1,Industrial,FUEL_PUMP,20-40,1,0,0.0
569,BOMP1-PGHP1,Industrial,TOLL,10-20,1,1,100.0
570,BOMP1-PGHP1,Industrial,TOLL,20-40,2,2,100.0
571,BOMP1-PGHP1,Industrial,TOLL,5-10,1,0,0.0
572,BOMP1-PGHP1,Industrial,TOLL,<5,2,0,0.0
573,BOMP1-PGHP1,Industrial,UNS,10-20,4,2,50.0
574,BOMP1-PGHP1,Industrial,UNS,20-40,1,1,100.0
575,BOMP1-PGHP1,Industrial,UNS,>=60,1,1,100.0
576,BOMP1-SXVP1,Zoom,CHECKPOST,<5,1,0,0.0
577,BOMP1-SXVP1,Zoom,PITSTOP,10-20,1,0,0.0
578,BOMP1-SXVP1,Zoom,UNS,10-20,1,1,100.0
579,BOMP2-CCUP1,Industrial,?,10-20,4,4,100.0
580,BOMP2-CCUP1,Industrial,TOLL,10-20,1,1,100.0
581,CCUP1-AMBP1,Industrial,?,10-20,2,2,100.0
582,CCUP1-AMBP1,Industrial,?,40-60,1,1,100.0
583,CCUP1-AMBP1,Industrial,TOLL,10-20,3,2,66.66666666666667
584,CCUP1-AMBP1,Industrial,UNS,10-20,2,2,100.0
585,CCUP1-AMBP1,Industrial,UNS,20-40,1,1,100.0
586,CCUP1-AMBP1,Zoom,CHECKPOST,10-20,1,0,0.0
587,CCUP1-AMBP1,Zoom,FUEL_PUMP,20-40,1,1,100.0
588,CCUP1-AMBP1,Zoom,TOLL,10-20,3,2,66.66666666666667
589,CCUP1-AMDP1,Green,?,10-20,2,1,50.0
590,CCUP1-AMDP1,Green,?,20-40,4,4,100.0
591,CCUP1-AMDP1,Green,?,5-10,1,1,100.0
592,CCUP1-AMDP1,Green,CHECKPOST,10-20,1,0,0.0
593,CCUP1-AMDP1,Green,FUEL_PUMP,>=60,1,1,100.0
594,CCUP1-AMDP1,Green,UNS,10-20,2,2,100.0
595,CCUP1-AMDP1,Green,UNS,20-40,2,2,100.0
596,CCUP1-AMDP1,Zoom,?,10-20,2,2,100.0
597,CCUP1-AMDP1,Zoom,?,5-10,1,0,0.0
598,CCUP1-AMDP1,Zoom,CHECKPOST,20-40,1,1,100.0
599,CCUP1-AMDP1,Zoom,TOLL,10-20,5,2,40.0
600,CCUP1-AMDP1,Zoom,TOLL,20-40,1,1,100.0
601,CCUP1-AMDP1,Zoom,TOLL,5-10,1,0,0.0
602,CCUP1-AMDP1,Zoom,UNS,10-20,3,2,66.66666666666667
603,CCUP1-AMDP1,Zoom,UNS,20-40,2,1,50.0
604,CCUP1-AMDP1,Zoom,UNS,5-10,1,1,100.0
605,CCUP1-AUBP1,Industrial,TOLL,10-20,1,1,100.0
606,CCUP1-AUBP1,Zoom,?,10-20,1,1,100.0
607,CCUP1-AUBP1,Zoom,?,5-10,1,0,0.0
608,CCUP1-BDQP1,Industrial,?,20-40,1,1,100.0
609,CCUP1-BGMP1,Industrial,?,10-20,6,6,100.0
610,CCUP1-BGMP1,Industrial,?,20-40,3,3,100.0
611,CCUP1-BGMP1,Industrial,?,5-10,1,1,100.0
612,CCUP1-BGMP1,Industrial,?,<5,1,1,100.0
613,CCUP1-BGMP1,Industrial,TOLL,5-10,1,0,0.0
614,CCUP1-BGMP1,Industrial,TOLL,>=60,1,1,100.0
615,CCUP1-BGMP1,Industrial,UNS,10-20,1,0,0.0
616,CCUP1-BGMP1,Industrial,UNS,20-40,1,1,100.0
617,CCUP1-BLRP1,Green,PITSTOP,10-20,1,1,100.0
618,CCUP1-BLRP1,Industrial,?,10-20,1,1,100.0
619,CCUP1-BLRP1,Industrial,?,20-40,1,1,100.0
620,CCUP1-BLRP1,Industrial,TOLL,20-40,1,1,100.0
621,CCUP1-BLRP1,Industrial,UNS,10-20,2,1,50.0
622,CCUP1-BLRP1,Industrial,UNS,20-40,1,0,0.0
623,CCUP1-BLRP1,Industrial,UNS,5-10,1,1,100.0
624,CCUP1-BLRP2,Industrial,?,10-20,1,1,100.0
625,CCUP1-BLRP2,Industrial,?,20-40,1,1,100.0
626,CCUP1-BLRP2,Industrial,TOLL,10-20,1,0,0.0
627,CCUP1-BLRP2,Industrial,TOLL,20-40,2,1,50.0
628,CCUP1-BLRP2,Industrial,TOLL,5-10,1,0,0.0
629,CCUP1-BLRP2,Zoom,?,10-20,2,2,100.0
630,CCUP1-BLRP2,Zoom,?,20-40,1,1,100.0
631,CCUP1-BLRP2,Zoom,TOLL,10-20,3,1,33.333333333333336
632,CCUP1-BOMP1,Industrial,?,10-20,2,1,50.0
633,CCUP1-BOMP1,Industrial,TOLL,10-20,1,1,100.0
634,CCUP1-BOMP1,Zoom,?,10-20,2,2,100.0
635,CCUP1-BOMP1,Zoom,?,20-40,1,1,100.0
636,CCUP1-BOMP1,Zoom,?,<5,1,0,0.0
637,CCUP1-BOMP2,Industrial,?,10-20,8,8,100.0
638,CCUP1-BOMP2,Industrial,?,20-40,3,3,100.0
639,CCUP1-BOMP2,Industrial,?,5-10,1,1,100.0
640,CCUP1-BOMP2,Industrial,?,>=60,1,1,100.0
641,CCUP1-BOMP2,Industrial,TOLL,20-40,2,1,50.0
642,CCUP1-BOMP2,Industrial,TOLL,>=60,1,1,100.0
643,CCUP1-BOMP2,Industrial,UNS,10-20,2,2,100.0
644,CCUP1-DELP1,Green,FUEL_PUMP,20-40,2,0,0.0
645,CCUP1-DELP1,Green,TOLL,10-20,3,1,33.333333333333336
646,CCUP1-DELP1,Green,TOLL,20-40,1,1,100.0
647,CCUP1-DELP1,Industrial,?,10-20,15,11,73.33333333333333
648,CCUP1-DELP1,Industrial,?,20-40,10,9,90.0
649,CCUP1-DELP1,Industrial,?,5-10,1,1,100.0
650,CCUP1-DELP1,Industrial,?,<5,1,0,0.0
651,CCUP1-DELP1,Industrial,?,>=60,1,1,100.0
652,CCUP1-DELP1,Industrial,FUEL_PUMP,20-40,4,2,50.0
653,CCUP1-DELP1,Industrial,FUEL_PUMP,40-60,2,2,100.0
654,CCUP1-DELP1,Industrial,TOLL,10-20,9,2,22.22222222222222
655,CCUP1-DELP1,Industrial,TOLL,20-40,1,1,100.0
656,CCUP1-DELP1,Industrial,TOLL,>=60,2,2,100.0
657,CCUP1-DELP1,Industrial,UNS,10-20,7,4,57.142857142857146
658,CCUP1-DELP1,Industrial,UNS,20-40,5,2,40.0
659,CCUP1-DELP1,Industrial,UNS,<5,1,0,0.0
660,CCUP1-DELP1,Zoom,?,10-20,7,6,85.71428571428571
661,CCUP1-DELP1,Zoom,?,20-40,2,2,100.0
662,CCUP1-DELP1,Zoom,?,5-10,1,0,0.0
663,CCUP1-DELP1,Zoom,?,>=60,1,1,100.0
664,CCUP1-DELP1,Zoom,CHECKPOST,20-40,1,1,100.0
665,CCUP1-DELP1,Zoom,CLIENT_WAREHOUSE,>=60,1,1,100.0
666,CCUP1-DELP1,Zoom,TOLL,10-20,3,1,33.333333333333336
667,CCUP1-DELP1,Zoom,TOLL,20-40,1,1,100.0
668,CCUP1-DELP1,Zoom,UNS,10-20,3,2,66.66666666666667
669,CCUP1-DELP1,Zoom,UNS,20-40,2,0,0.0
670,CCUP1-GAUP1,Zoom,?,40-60,1,1,100.0
671,CCUP1-GAUP1,Zoom,UNS,10-20,1,0,0.0
672,CCUP1-HYDP1,Ecom,?,20-40,1,1,100.0
673,CCUP1-HYDP1,Ecom,?,5-10,1,1,100.0
674,CCUP1-HYDP1,Ecom,TOLL,10-20,3,1,33.333333333333336
675,CCUP1-HYDP1,Ecom,TOLL,5-10,1,0,0.0
676,CCUP1-HYDP1,Ecom,UNS,10-20,2,1,50.0
677,CCUP1-HYDP1,Ecom,UNS,20-40,1,1,100.0
678,CCUP1-HYDP1,Industrial,?,10-20,2,2,100.0
679,CCUP1-HYDP1,Industrial,?,20-40,2,2,100.0
680,CCUP1-HYDP1,Industrial,TOLL,20-40,2,2,100.0
681,CCUP1-HYDP1,Industrial,UNS,10-20,1,1,100.0
682,CCUP1-HYDP1,Industrial,UNS,20-40,1,1,100.0
683,CCUP1-JHSP1,Industrial,?,10-20,1,1,100.0
684,CCUP1-JHSP1,Industrial,?,20-40,1,1,100.0
685,CCUP1-JHSP1,Industrial,?,5-10,1,1,100.0
686,CCUP1-JHSP1,Industrial,?,<5,1,0,0.0
687,CCUP1-JHSP1,Industrial,TOLL,10-20,1,0,0.0
688,CCUP1-JHSP1,Industrial,TOLL,20-40,1,0,0.0
689,CCUP1-JHSP1,Industrial,UNS,20-40,1,0,0.0
690,CCUP1-MAAP1,Industrial,?,10-20,2,2,100.0
691,CCUP1-MAAP1,Industrial,?,20-40,1,1,100.0
692,CCUP1-MAAP1,Industrial,?,<5,1,0,0.0
693,CCUP1-MAAP1,Industrial,TOLL,10-20,3,2,66.66666666666667
694,CCUP1-MAAP1,Industrial,TOLL,20-40,2,1,50.0
695,CCUP1-MAAP1,Industrial,TOLL,<5,3,0,0.0
696,CCUP1-MAAP1,Industrial,UNS,10-20,4,3,75.0
697,CCUP1-MAAP1,Industrial,UNS,20-40,3,3,100.0
698,CCUP1-MAAP1,Industrial,UNS,5-10,1,1,100.0
699,CCUP1-MAAP1,Zoom,?,5-10,1,1,100.0
700,CCUP1-MAAP1,Zoom,TOLL,20-40,1,1,100.0
701,CCUP1-PNQP1,Industrial,?,10-20,9,7,77.77777777777777
702,CCUP1-PNQP1,Industrial,?,20-40,2,2,100.0
703,CCUP1-PNQP1,Industrial,?,40-60,2,2,100.0
704,CCUP1-PNQP1,Industrial,?,<5,1,0,0.0
705,CCUP1-PNQP1,Industrial,?,>=60,2,2,100.0
706,CCUP1-PNQP1,Industrial,UNS,20-40,1,1,100.0
707,CCUP1-PNQP1,Industrial,UNS,5-10,1,1,100.0
708,CCUP1-PNQP1,Zoom,UNS,5-10,1,1,100.0
709,CCUP1-PNQP1,Zoom,UNS,<5,1,0,0.0
710,CCUP1-VNSP1,Industrial,?,>=60,1,1,100.0
711,DBDP1-AMBP1,Industrial,?,10-20,1,1,100.0
712,DBDP1-AMBP1,Industrial,?,20-40,2,2,100.0
713,DBDP1-AMBP1,Industrial,TOLL,10-20,2,1,50.0
714,DBDP1-AMBP1,Industrial,TOLL,20-40,1,0,0.0
715,DBDP1-AMBP1,Industrial,UNS,10-20,1,0,0.0
716,DBDP1-AMBP1,Industrial,UNS,20-40,1,1,100.0
717,DBDP1-BLRP1,Industrial,?,10-20,4,4,100.0
718,DBDP1-BLRP1,Industrial,?,>=60,1,1,100.0
719,DBDP1-PGHP1,Industrial,?,10-20,5,5,100.0
720,DBDP1-PGHP1,Industrial,?,20-40,1,1,100.0
721,DBDP1-PGHP1,Industrial,?,40-60,1,1,100.0
722,DBDP1-PGHP1,Industrial,TOLL,10-20,1,0,0.0
723,DBDP1-PGHP1,Industrial,TOLL,40-60,1,1,100.0
724,DBDP1-PGHP1,Industrial,UNS,20-40,1,1,100.0
725,DELP1-AMDP1,Industrial,TOLL,10-20,1,1,100.0
726,DELP1-AMDP1,Industrial,TOLL,20-40,1,1,100.0
727,DELP1-AMDP1,Industrial,UNS,10-20,1,0,0.0
728,DELP1-AMDP1,Zoom,?,10-20,1,1,100.0
729,DELP1-AMDP1,Zoom,FUEL_PUMP,20-40,1,1,100.0
730,DELP1-AMDP1,Zoom,UNS,10-20,1,1,100.0
731,DELP1-AUBP1,Industrial,?,10-20,1,0,0.0
732,DELP1-AUBP1,Industrial,?,20-40,1,0,0.0
733,DELP1-AUBP1,Industrial,TOLL,10-20,2,0,0.0
734,DELP1-AUBP1,Zoom,?,10-20,1,1,100.0
735,DELP1-AUBP1,Zoom,?,20-40,1,1,100.0
736,DELP1-AUBP1,Zoom,?,<5,2,0,0.0
737,DELP1-AUBP1,Zoom,FUEL_PUMP,>=60,2,2,100.0
738,DELP1-AUBP1,Zoom,TOLL,10-20,2,1,50.0
739,DELP1-AUBP1,Zoom,TOLL,20-40,1,0,0.0
740,DELP1-AUBP1,Zoom,TOLL,5-10,1,0,0.0
741,DELP1-AUBP1,Zoom,TOLL,>=60,1,1,100.0
742,DELP1-AUBP1,Zoom,UNS,10-20,1,0,0.0
743,DELP1-AUBP1,Zoom,UNS,20-40,1,1,100.0
744,DELP1-BHCP1,Ecom,?,10-20,2,2,100.0
745,DELP1-BHCP1,Ecom,?,>=60,2,2,100.0
746,DELP1-BHCP1,Ecom,TOLL,10-20,1,0,0.0
747,DELP1-BHCP1,Ecom,TOLL,20-40,1,0,0.0
748,DELP1-BHCP1,Industrial,?,10-20,2,2,100.0
749,DELP1-BHCP1,Industrial,?,20-40,1,1,100.0
750,DELP1-BHCP1,Industrial,TOLL,10-20,1,0,0.0
751,DELP1-BHCP1,Industrial,TOLL,20-40,2,2,100.0
752,DELP1-BHCP1,Industrial,TOLL,5-10,1,1,100.0
753,DELP1-BHCP1,Industrial,TOLL,<5,1,0,0.0
754,DELP1-BHCP1,Industrial,UNS,20-40,1,1,100.0
755,DELP1-BLRP1,Green,?,10-20,3,3,100.0
756,DELP1-BLRP1,Green,?,20-40,5,4,80.0
757,DELP1-BLRP1,Green,?,>=60,1,1,100.0
758,DELP1-BLRP1,Green,CHECKPOST,10-20,3,0,0.0
759,DELP1-BLRP1,Green,CHECKPOST,20-40,1,0,0.0
760,DELP1-BLRP1,Green,CHECKPOST,5-10,1,0,0.0
761,DELP1-BLRP1,Green,FUEL_PUMP,10-20,3,0,0.0
762,DELP1-BLRP1,Green,FUEL_PUMP,20-40,3,0,0.0
763,DELP1-BLRP1,Green,TOLL,10-20,5,2,40.0
764,DELP1-BLRP1,Green,TOLL,20-40,12,5,41.666666666666664
765,DELP1-BLRP1,Green,TOLL,5-10,2,0,0.0
766,DELP1-BLRP1,Green,UNS,10-20,4,1,25.0
767,DELP1-BLRP1,Green,UNS,20-40,4,2,50.0
768,DELP1-BLRP1,Industrial,?,5-10,1,1,100.0
769,DELP1-BLRP1,Industrial,CHECKPOST,10-20,1,0,0.0
770,DELP1-BLRP1,Industrial,FUEL_PUMP,10-20,1,0,0.0
771,DELP1-BLRP1,Industrial,TOLL,10-20,3,0,0.0
772,DELP1-BLRP1,Industrial,TOLL,20-40,3,2,66.66666666666667
773,DELP1-BLRP1,Industrial,TOLL,<5,1,0,0.0
774,DELP1-BLRP1,Industrial,UNS,20-40,1,1,100.0
775,DELP1-BLRP1,Industrial,UNS,<5,1,0,0.0
776,DELP1-BLRP1,Industrial,UNS,>=60,1,1,100.0
777,DELP1-BLRP2,Ecom,?,20-40,1,1,100.0
778,DELP1-BLRP2,Ecom,?,40-60,1,1,100.0
779,DELP1-BLRP2,Ecom,CHECKPOST,10-20,1,0,0.0
780,DELP1-BLRP2,Ecom,CHECKPOST,20-40,1,1,100.0
781,DELP1-BLRP2,Ecom,FUEL_PUMP,20-40,1,0,0.0
782,DELP1-BLRP2,Ecom,TOLL,10-20,1,0,0.0
783,DELP1-BLRP2,Ecom,TOLL,5-10,1,0,0.0
784,DELP1-BLRP2,Ecom,UNS,10-20,1,1,100.0
785,DELP1-BLRP2,Ecom,UNS,20-40,1,1,100.0
786,DELP1-BLRP2,Green,FUEL_PUMP,40-60,1,1,100.0
787,DELP1-BLRP2,Green,UNS,10-20,2,1,50.0
788,DELP1-BLRP2,Zoom,?,10-20,1,1,100.0
789,DELP1-BLRP2,Zoom,?,20-40,2,2,100.0
790,DELP1-BLRP2,Zoom,?,40-60,2,2,100.0
791,DELP1-BLRP2,Zoom,?,>=60,1,1,100.0
792,DELP1-BLRP2,Zoom,CHECKPOST,10-20,5,0,0.0
793,DELP1-BLRP2,Zoom,CHECKPOST,20-40,2,0,0.0
794,DELP1-BLRP2,Zoom,CHECKPOST,5-10,1,0,0.0
795,DELP1-BLRP2,Zoom,FUEL_PUMP,10-20,2,0,0.0
796,DELP1-BLRP2,Zoom,FUEL_PUMP,20-40,1,0,0.0
797,DELP1-BLRP2,Zoom,FUEL_PUMP,40-60,2,0,0.0
798,DELP1-BLRP2,Zoom,TOLL,10-20,6,0,0.0
799,DELP1-BLRP2,Zoom,TOLL,20-40,3,2,66.66666666666667
800,DELP1-BLRP2,Zoom,TOLL,5-10,2,0,0.0
801,DELP1-BLRP2,Zoom,TOLL,<5,1,0,0.0
802,DELP1-BLRP2,Zoom,UNS,10-20,2,0,0.0
803,DELP1-BLRP2,Zoom,UNS,40-60,1,1,100.0
804,DELP1-BLRP2,Zoom,UNS,5-10,2,1,50.0
805,DELP1-BLRP2,Zoom,UNS,<5,2,0,0.0
806,DELP1-BLRP2,Zoom,UNS,>=60,1,1,100.0
807,DELP1-BOMP1,Green,?,20-40,1,1,100.0
808,DELP1-BOMP1,Green,FUEL_PUMP,10-20,2,0,0.0
809,DELP1-BOMP1,Green,FUEL_PUMP,20-40,1,0,0.0
810,DELP1-BOMP1,Green,TOLL,5-10,1,0,0.0
811,DELP1-BOMP1,Green,UNS,10-20,4,4,100.0
812,DELP1-BOMP1,Industrial,?,10-20,2,2,100.0
813,DELP1-BOMP1,Industrial,TOLL,10-20,1,1,100.0
814,DELP1-BOMP1,Zoom,?,20-40,2,2,100.0
815,DELP1-BOMP1,Zoom,FUEL_PUMP,20-40,1,1,100.0
816,DELP1-BOMP1,Zoom,TOLL,5-10,1,0,0.0
817,DELP1-BOMP1,Zoom,TOLL,<5,1,0,0.0
818,DELP1-BOMP1,Zoom,UNS,10-20,3,1,33.333333333333336
819,DELP1-BOMP1,Zoom,UNS,5-10,1,0,0.0
820,DELP1-BOMP2,Industrial,?,5-10,1,0,0.0
821,DELP1-BOMP2,Industrial,TOLL,10-20,1,0,0.0
822,DELP1-BOMP2,Industrial,UNS,10-20,3,2,66.66666666666667
823,DELP1-CCUP1,Ecom,?,10-20,4,4,100.0
824,DELP1-CCUP1,Ecom,?,20-40,3,2,66.66666666666667
825,DELP1-CCUP1,Ecom,?,5-10,1,1,100.0
826,DELP1-CCUP1,Ecom,CHECKPOST,10-20,1,0,0.0
827,DELP1-CCUP1,Ecom,TOLL,10-20,1,0,0.0
828,DELP1-CCUP1,Ecom,TOLL,20-40,2,0,0.0
829,DELP1-CCUP1,Ecom,TOLL,5-10,1,0,0.0
830,DELP1-CCUP1,Ecom,UNS,20-40,1,1,100.0
831,DELP1-CCUP1,Industrial,?,10-20,2,2,100.0
832,DELP1-CCUP1,Industrial,?,20-40,1,1,100.0
833,DELP1-CCUP1,Industrial,?,<5,1,1,100.0
834,DELP1-CCUP1,Industrial,?,>=60,3,3,100.0
835,DELP1-CCUP1,Industrial,CHECKPOST,10-20,1,0,0.0
836,DELP1-CCUP1,Industrial,FUEL_PUMP,20-40,1,0,0.0
837,DELP1-CCUP1,Industrial,TOLL,10-20,6,0,0.0
838,DELP1-CCUP1,Industrial,TOLL,20-40,3,1,33.333333333333336
839,DELP1-CCUP1,Industrial,TOLL,>=60,2,2,100.0
840,DELP1-CCUP1,Industrial,UNS,10-20,3,2,66.66666666666667
841,DELP1-CCUP1,Industrial,UNS,20-40,4,2,50.0
842,DELP1-CCUP1,Industrial,UNS,5-10,1,1,100.0
843,DELP1-CCUP1,Industrial,UNS,>=60,1,1,100.0
844,DELP1-CCUP1,Zoom,?,10-20,7,7,100.0
845,DELP1-CCUP1,Zoom,?,20-40,3,3,100.0
846,DELP1-CCUP1,Zoom,?,>=60,2,2,100.0
847,DELP1-CCUP1,Zoom,FUEL_PUMP,20-40,1,0,0.0
848,DELP1-CCUP1,Zoom,TOLL,10-20,10,0,0.0
849,DELP1-CCUP1,Zoom,TOLL,20-40,1,1,100.0
850,DELP1-CCUP1,Zoom,TOLL,5-10,1,0,0.0
851,DELP1-CCUP1,Zoom,TOLL,<5,1,0,0.0
852,DELP1-CCUP1,Zoom,TOLL,>=60,2,2,100.0
853,DELP1-CCUP1,Zoom,UNS,10-20,2,1,50.0
854,DELP1-CCUP1,Zoom,UNS,20-40,6,5,83.33333333333333
855,DELP1-GAUP1,Industrial,?,10-20,2,2,100.0
856,DELP1-GAUP1,Industrial,TOLL,20-40,1,1,100.0
857,DELP1-GAUP1,Industrial,TOLL,<5,1,0,0.0
858,DELP1-GAUP1,Industrial,UNS,20-40,1,0,0.0
859,DELP1-GAUP1,Zoom,?,10-20,7,5,71.42857142857143
860,DELP1-GAUP1,Zoom,?,20-40,3,2,66.66666666666667
861,DELP1-GAUP1,Zoom,?,40-60,1,1,100.0
862,DELP1-GAUP1,Zoom,?,>=60,1,1,100.0
863,DELP1-GAUP1,Zoom,CLIENT_WAREHOUSE,>=60,1,1,100.0
864,DELP1-GAUP1,Zoom,FUEL_PUMP,>=60,3,3,100.0
865,DELP1-GAUP1,Zoom,TOLL,10-20,5,4,80.0
866,DELP1-GAUP1,Zoom,TOLL,20-40,5,2,40.0
867,DELP1-GAUP1,Zoom,TOLL,5-10,1,0,0.0
868,DELP1-GAUP1,Zoom,UNS,10-20,2,0,0.0
869,DELP1-HYDP1,Ecom,CHECKPOST,5-10,1,0,0.0
870,DELP1-HYDP1,Industrial,?,20-40,1,1,100.0
871,DELP1-HYDP1,Industrial,?,<5,1,1,100.0
872,DELP1-HYDP1,Industrial,CHECKPOST,10-20,2,0,0.0
873,DELP1-HYDP1,Industrial,CHECKPOST,20-40,3,1,33.333333333333336
874,DELP1-HYDP1,Industrial,FUEL_PUMP,20-40,1,0,0.0
875,DELP1-HYDP1,Industrial,TOLL,10-20,2,0,0.0
876,DELP1-HYDP1,Industrial,TOLL,20-40,1,1,100.0
877,DELP1-HYDP1,Industrial,TOLL,40-60,1,1,100.0
878,DELP1-HYDP1,Industrial,TOLL,>=60,1,1,100.0
879,DELP1-HYDP1,Industrial,UNS,10-20,1,1,100.0
880,DELP1-HYDP1,Industrial,UNS,20-40,1,0,0.0
881,DELP1-HYDP1,Zoom,?,10-20,3,2,66.66666666666667
882,DELP1-HYDP1,Zoom,?,20-40,1,1,100.0
883,DELP1-HYDP1,Zoom,?,5-10,1,1,100.0
884,DELP1-HYDP1,Zoom,?,>=60,2,2,100.0
885,DELP1-HYDP1,Zoom,CHECKPOST,10-20,3,0,0.0
886,DELP1-HYDP1,Zoom,CHECKPOST,20-40,1,0,0.0
887,DELP1-HYDP1,Zoom,FUEL_PUMP,20-40,2,0,0.0
888,DELP1-HYDP1,Zoom,TOLL,10-20,4,0,0.0
889,DELP1-HYDP1,Zoom,TOLL,20-40,2,0,0.0
890,DELP1-HYDP1,Zoom,TOLL,5-10,1,0,0.0
891,DELP1-HYDP1,Zoom,TOLL,<5,1,0,0.0
892,DELP1-HYDP1,Zoom,UNS,10-20,3,1,33.333333333333336
893,DELP1-HYDP1,Zoom,UNS,<5,1,0,0.0
894,DELP1-IXWP1,Industrial,?,10-20,3,3,100.0
895,DELP1-IXWP1,Industrial,?,20-40,1,1,100.0
896,DELP1-IXWP1,Industrial,?,>=60,1,1,100.0
897,DELP1-IXWP1,Industrial,FUEL_PUMP,10-20,1,0,0.0
898,DELP1-IXWP1,Industrial,TOLL,10-20,1,0,0.0
899,DELP1-IXWP1,Industrial,TOLL,>=60,2,2,100.0
900,DELP1-KNUP1,Zoom,FUEL_PUMP,20-40,1,1,100.0
901,DELP1-KNUP1,Zoom,FUEL_PUMP,>=60,1,1,100.0
902,DELP1-KNUP1,Zoom,TOLL,10-20,4,1,25.0
903,DELP1-KNUP1,Zoom,TOLL,20-40,1,1,100.0
904,DELP1-MAAP1,Industrial,?,10-20,6,5,83.33333333333333
905,DELP1-MAAP1,Industrial,?,20-40,4,3,75.0
906,DELP1-MAAP1,Industrial,?,5-10,1,1,100.0
907,DELP1-MAAP1,Industrial,CHECKPOST,10-20,3,0,0.0
908,DELP1-MAAP1,Industrial,FUEL_PUMP,20-40,3,0,0.0
909,DELP1-MAAP1,Industrial,TOLL,10-20,2,1,50.0
910,DELP1-MAAP1,Industrial,TOLL,20-40,7,4,57.142857142857146
911,DELP1-MAAP1,Industrial,UNS,10-20,1,1,100.0
912,DELP1-MAAP1,Industrial,UNS,20-40,1,1,100.0
913,DELP1-MAAP1,Zoom,?,10-20,4,3,75.0
914,DELP1-MAAP1,Zoom,?,40-60,1,1,100.0
915,DELP1-MAAP1,Zoom,?,>=60,1,1,100.0
916,DELP1-MAAP1,Zoom,CHECKPOST,10-20,2,0,0.0
917,DELP1-MAAP1,Zoom,CHECKPOST,20-40,1,0,0.0
918,DELP1-MAAP1,Zoom,CHECKPOST,5-10,1,0,0.0
919,DELP1-MAAP1,Zoom,FUEL_PUMP,10-20,1,0,0.0
920,DELP1-MAAP1,Zoom,FUEL_PUMP,20-40,1,0,0.0
921,DELP1-MAAP1,Zoom,TOLL,10-20,4,0,0.0
922,DELP1-MAAP1,Zoom,TOLL,20-40,1,0,0.0
923,DELP1-MAAP1,Zoom,TOLL,5-10,2,0,0.0
924,DELP1-MAAP1,Zoom,UNS,10-20,3,2,66.66666666666667
925,DELP1-MAAP1,Zoom,UNS,5-10,1,1,100.0
926,DELP1-MAQP1,Industrial,?,20-40,1,1,100.0
927,DELP1-MAQP1,Industrial,TOLL,10-20,1,0,0.0
928,DELP1-MAQP1,Zoom,CHECKPOST,10-20,1,0,0.0
929,DELP1-MAQP1,Zoom,CHECKPOST,40-60,1,1,100.0
930,DELP1-MAQP1,Zoom,FUEL_PUMP,20-40,1,0,0.0
931,DELP1-MAQP1,Zoom,PITSTOP,20-40,1,1,100.0
932,DELP1-MAQP1,Zoom,TOLL,10-20,2,1,50.0
933,DELP1-MAQP1,Zoom,TOLL,20-40,4,2,50.0
934,DELP1-MULP1,Industrial,TOLL,10-20,1,1,100.0
935,DELP1-NAGP1,Industrial,?,10-20,2,2,100.0
936,DELP1-NAGP1,Industrial,CHECKPOST,10-20,1,0,0.0
937,DELP1-NAGP1,Industrial,CHECKPOST,20-40,1,0,0.0
938,DELP1-NAGP1,Industrial,FUEL_PUMP,10-20,1,0,0.0
939,DELP1-NAGP1,Industrial,FUEL_PUMP,20-40,1,0,0.0
940,DELP1-NAGP1,Industrial,TOLL,10-20,1,0,0.0
941,DELP1-NAGP1,Industrial,TOLL,20-40,3,1,33.333333333333336
942,DELP1-NAGP1,Industrial,TOLL,5-10,1,0,0.0
943,DELP1-NAGP1,Industrial,UNS,10-20,1,0,0.0
944,DELP1-NAGP1,Zoom,?,10-20,1,0,0.0
945,DELP1-NAGP1,Zoom,TOLL,10-20,2,0,0.0
946,DELP1-NAGP1,Zoom,TOLL,20-40,1,0,0.0
947,DELP1-NAGP1,Zoom,UNS,10-20,2,2,100.0
948,DELP1-NJPP1,Industrial,?,10-20,2,2,100.0
949,DELP1-NJPP1,Industrial,?,20-40,1,1,100.0
950,DELP1-NJPP1,Industrial,?,40-60,1,0,0.0
951,DELP1-NJPP1,Industrial,CHECKPOST,>=60,1,1,100.0
952,DELP1-NJPP1,Industrial,TOLL,10-20,4,2,50.0
953,DELP1-NJPP1,Industrial,TOLL,20-40,2,1,50.0
954,DELP1-NJPP1,Industrial,TOLL,40-60,1,1,100.0
955,DELP1-NJPP1,Industrial,UNS,10-20,1,1,100.0
956,DELP1-NJPP1,Industrial,UNS,20-40,1,0,0.0
957,DELP1-NJPP1,Industrial,UNS,<5,1,0,0.0
958,DELP1-NURP1,Industrial,?,10-20,2,2,100.0
959,DELP1-NURP1,Industrial,TOLL,10-20,1,0,0.0
960,DELP1-NURP1,Industrial,TOLL,5-10,1,0,0.0
961,DELP1-NURP1,Industrial,UNS,20-40,1,0,0.0
962,DELP1-PNQP1,Industrial,?,10-20,2,1,50.0
963,DELP1-PNQP1,Industrial,?,20-40,5,4,80.0
964,DELP1-PNQP1,Industrial,?,40-60,1,1,100.0
965,DELP1-PNQP1,Industrial,?,>=60,2,2,100.0
966,DELP1-PNQP1,Industrial,FUEL_PUMP,20-40,1,0,0.0
967,DELP1-PNQP1,Industrial,TOLL,20-40,1,1,100.0
968,DELP1-PNQP1,Industrial,TOLL,<5,2,0,0.0
969,DELP1-PNQP1,Industrial,TOLL,>=60,1,1,100.0
970,DELP1-PNQP1,Industrial,UNS,10-20,4,3,75.0
971,DELP1-PNQP1,Industrial,UNS,20-40,2,2,100.0
972,DELP1-PNQP1,Zoom,?,10-20,5,2,40.0
973,DELP1-PNQP1,Zoom,?,20-40,5,5,100.0
974,DELP1-PNQP1,Zoom,CHECKPOST,40-60,2,2,100.0
975,DELP1-PNQP1,Zoom,CHECKPOST,<5,1,0,0.0
976,DELP1-PNQP1,Zoom,CHECKPOST,>=60,1,1,100.0
977,DELP1-PNQP1,Zoom,TOLL,10-20,4,1,25.0
978,DELP1-PNQP1,Zoom,TOLL,20-40,5,3,60.0
979,DELP1-PNQP1,Zoom,TOLL,40-60,1,1,100.0
980,DELP1-PNQP1,Zoom,TOLL,5-10,1,0,0.0
981,DELP1-PNQP1,Zoom,TOLL,<5,1,0,0.0
982,DELP1-PNQP1,Zoom,UNS,10-20,1,1,100.0
983,DELP1-PNQP1,Zoom,UNS,20-40,4,3,75.0
984,DELP1-PNQP1,Zoom,UNS,<5,1,0,0.0
985,DELP1-PNQP1,Zoom,UNS,>=60,1,1,100.0
986,DELP1-RPRP1,Industrial,?,10-20,1,0,0.0
987,DELP1-RPRP1,Industrial,?,20-40,3,3,100.0
988,DELP1-RPRP1,Industrial,CHECKPOST,10-20,1,0,0.0
989,DELP1-RPRP1,Industrial,CHECKPOST,20-40,1,0,0.0
990,DELP1-RPRP1,Industrial,FUEL_PUMP,10-20,1,0,0.0
991,DELP1-RPRP1,Industrial,FUEL_PUMP,20-40,1,0,0.0
992,DELP1-RPRP1,Industrial,TOLL,10-20,2,0,0.0
993,DELP1-RPRP1,Industrial,TOLL,20-40,4,0,0.0
994,DELP1-RPRP1,Industrial,TOLL,<5,1,0,0.0
995,DELP1-RPRP1,Industrial,UNS,10-20,3,1,33.333333333333336
996,DELP1-RPRP1,Industrial,UNS,20-40,1,1,100.0
997,DELP1-SXVP1,Industrial,?,10-20,2,2,100.0
998,DELP1-SXVP1,Industrial,?,20-40,2,2,100.0
999,DELP1-SXVP1,Industrial,CHECKPOST,20-40,1,0,0.0
1000,DELP1-SXVP1,Industrial,CHECKPOST,>=60,1,1,100.0
1001,DELP1-SXVP1,Industrial,TOLL,10-20,4,0,0.0
1002,DELP1-SXVP1,Industrial,TOLL,20-40,2,1,50.0
1003,DELP1-SXVP1,Industrial,TOLL,5-10,1,0,0.0
1004,DELP1-SXVP1,Industrial,UNS,10-20,5,2,40.0
1005,DELP1-SXVP1,Industrial,UNS,20-40,4,2,50.0
1006,DELP1-SXVP1,Industrial,UNS,40-60,1,1,100.0
1007,DELP1-SXVP1,Zoom,?,10-20,3,3,100.0
1008,DELP1-SXVP1,Zoom,?,40-60,1,1,100.0
1009,DELP1-SXVP1,Zoom,CHECKPOST,10-20,4,0,0.0
1010,DELP1-SXVP1,Zoom,CHECKPOST,20-40,1,0,0.0
1011,DELP1-SXVP1,Zoom,FUEL_PUMP,10-20,2,0,0.0
1012,DELP1-SXVP1,Zoom,FUEL_PUMP,20-40,1,0,0.0
1013,DELP1-SXVP1,Zoom,PITSTOP,10-20,1,1,100.0
1014,DELP1-SXVP1,Zoom,TOLL,10-20,4,0,0.0
1015,DELP1-SXVP1,Zoom,TOLL,20-40,3,1,33.333333333333336
1016,DELP1-SXVP1,Zoom,TOLL,40-60,2,1,50.0
1017,DELP1-SXVP1,Zoom,TOLL,5-10,1,0,0.0
1018,DELP1-SXVP1,Zoom,UNS,10-20,6,4,66.66666666666667
1019,DELP1-SXVP1,Zoom,UNS,5-10,1,0,0.0
1020,DELP1-VAPP1,Zoom,?,40-60,1,1,100.0
1021,DELP1-VAPP1,Zoom,TOLL,10-20,1,0,0.0
1022,DELP1-VGAP1,Industrial,CHECKPOST,10-20,1,0,0.0
1023,DELP1-VGAP1,Industrial,TOLL,10-20,1,0,0.0
1024,DELP3-BLRP1,Green,?,20-40,2,1,50.0
1025,DELP3-BLRP1,Green,FUEL_PUMP,20-40,1,0,0.0
1026,DELP3-BLRP1,Green,TOLL,10-20,2,0,0.0
1027,DELP3-BLRP1,Green,TOLL,20-40,1,0,0.0
1028,DELP3-BLRP1,Industrial,?,10-20,2,2,100.0
1029,DELP3-BLRP1,Industrial,CHECKPOST,20-40,1,0,0.0
1030,DELP3-BLRP1,Industrial,FUEL_PUMP,20-40,1,0,0.0
1031,DELP3-BLRP1,Industrial,TOLL,10-20,2,0,0.0
1032,DELP3-BLRP1,Industrial,TOLL,20-40,1,0,0.0
1033,DELP3-CCUP1,Industrial,FUEL_PUMP,20-40,1,0,0.0
1034,DELP3-HBXP1,Industrial,?,10-20,1,1,100.0
1035,DELP3-HBXP1,Industrial,?,40-60,1,1,100.0
1036,DELP3-HYDP1,Industrial,?,20-40,1,0,0.0
1037,DELP3-HYDP1,Industrial,CHECKPOST,10-20,1,0,0.0
1038,DELP3-HYDP1,Industrial,CHECKPOST,20-40,1,0,0.0
1039,DELP3-HYDP1,Industrial,FUEL_PUMP,20-40,1,0,0.0
1040,DELP3-HYDP1,Industrial,TOLL,5-10,1,0,0.0
1041,DELP3-HYDP1,Industrial,UNS,40-60,1,1,100.0
1042,DELP3-MAAP1,Industrial,UNS,10-20,1,0,0.0
1043,GAUP1-AMBP1,Industrial,UNS,10-20,1,0,0.0
1044,GAUP1-AMDP1,Industrial,?,20-40,2,2,100.0
1045,GAUP1-AMDP1,Industrial,?,40-60,1,1,100.0
1046,GAUP1-AMDP1,Industrial,?,5-10,1,1,100.0
1047,GAUP1-AMDP1,Industrial,?,<5,2,1,50.0
1048,GAUP1-AMDP1,Industrial,TOLL,10-20,1,0,0.0
1049,GAUP1-AMDP1,Industrial,TOLL,>=60,1,1,100.0
1050,GAUP1-AMDP1,Industrial,UNS,<5,2,2,100.0
1051,GAUP1-BHCP1,Industrial,?,10-20,8,8,100.0
1052,GAUP1-BHCP1,Industrial,?,20-40,3,3,100.0
1053,GAUP1-BHCP1,Industrial,?,40-60,4,4,100.0
1054,GAUP1-BHCP1,Industrial,FUEL_PUMP,20-40,1,1,100.0
1055,GAUP1-BLRP1,Industrial,?,10-20,2,2,100.0
1056,GAUP1-BLRP1,Industrial,?,>=60,1,1,100.0
1057,GAUP1-BLRP1,Industrial,TOLL,20-40,1,1,100.0
1058,GAUP1-BLRP1,Industrial,TOLL,<5,1,0,0.0
1059,GAUP1-BLRP1,Industrial,UNS,10-20,2,2,100.0
1060,GAUP1-BLRP1,Industrial,UNS,20-40,2,1,50.0
1061,GAUP1-BLRP1,Industrial,UNS,5-10,1,0,0.0
1062,GAUP1-BLRP1,Industrial,UNS,>=60,1,1,100.0
1063,GAUP1-BLRP2,Zoom,TOLL,10-20,1,1,100.0
1064,GAUP1-BOMP1,Industrial,?,10-20,6,5,83.33333333333333
1065,GAUP1-BOMP1,Industrial,?,20-40,5,5,100.0
1066,GAUP1-BOMP1,Industrial,?,5-10,3,3,100.0
1067,GAUP1-BOMP1,Industrial,CHECKPOST,10-20,1,0,0.0
1068,GAUP1-BOMP1,Industrial,CHECKPOST,20-40,1,1,100.0
1069,GAUP1-BOMP1,Industrial,CHECKPOST,40-60,2,2,100.0
1070,GAUP1-BOMP1,Industrial,TOLL,10-20,3,1,33.333333333333336
1071,GAUP1-BOMP1,Industrial,TOLL,20-40,4,2,50.0
1072,GAUP1-BOMP1,Industrial,UNS,10-20,1,0,0.0
1073,GAUP1-BOMP1,Industrial,UNS,20-40,2,2,100.0
1074,GAUP1-BOMP1,Industrial,UNS,40-60,1,1,100.0
1075,GAUP1-BOMP1,Industrial,UNS,>=60,1,1,100.0
1076,GAUP1-BOMP1,Zoom,?,10-20,6,6,100.0
1077,GAUP1-BOMP1,Zoom,?,20-40,2,2,100.0
1078,GAUP1-BOMP1,Zoom,?,5-10,3,2,66.66666666666667
1079,GAUP1-BOMP1,Zoom,?,<5,2,0,0.0
1080,GAUP1-BOMP1,Zoom,FUEL_PUMP,20-40,1,0,0.0
1081,GAUP1-BOMP1,Zoom,TOLL,10-20,1,0,0.0
1082,GAUP1-BOMP1,Zoom,UNS,10-20,1,1,100.0
1083,GAUP1-CCUP1,Industrial,?,10-20,12,11,91.66666666666667
1084,GAUP1-CCUP1,Industrial,?,20-40,12,12,100.0
1085,GAUP1-CCUP1,Industrial,?,40-60,5,5,100.0
1086,GAUP1-CCUP1,Industrial,?,5-10,3,3,100.0
1087,GAUP1-CCUP1,Industrial,?,>=60,1,1,100.0
1088,GAUP1-CCUP1,Industrial,FUEL_PUMP,10-20,1,0,0.0
1089,GAUP1-CCUP1,Industrial,FUEL_PUMP,20-40,1,0,0.0
1090,GAUP1-CCUP1,Industrial,FUEL_PUMP,>=60,1,1,100.0
1091,GAUP1-CCUP1,Industrial,TOLL,10-20,1,1,100.0
1092,GAUP1-CCUP1,Industrial,TOLL,20-40,1,1,100.0
1093,GAUP1-CCUP1,Industrial,TOLL,5-10,1,0,0.0
1094,GAUP1-CCUP1,Industrial,TOLL,>=60,1,1,100.0
1095,GAUP1-CCUP1,Industrial,UNS,10-20,1,1,100.0
1096,GAUP1-CCUP1,Zoom,?,10-20,3,2,66.66666666666667
1097,GAUP1-CCUP1,Zoom,?,20-40,6,6,100.0
1098,GAUP1-CCUP1,Zoom,?,40-60,1,1,100.0
1099,GAUP1-CCUP1,Zoom,?,5-10,1,1,100.0
1100,GAUP1-CCUP1,Zoom,TOLL,5-10,1,0,0.0
1101,GAUP1-DBDP1,Industrial,?,10-20,1,1,100.0
1102,GAUP1-DBDP1,Industrial,TOLL,10-20,1,0,0.0
1103,GAUP1-DBDP1,Industrial,UNS,>=60,1,1,100.0
1104,GAUP1-DELP1,Industrial,?,10-20,2,2,100.0
1105,GAUP1-DELP1,Industrial,?,20-40,1,1,100.0
1106,GAUP1-DELP1,Zoom,?,10-20,2,1,50.0
1107,GAUP1-DELP1,Zoom,?,20-40,1,1,100.0
1108,GAUP1-DELP1,Zoom,?,40-60,1,1,100.0
1109,GAUP1-DELP1,Zoom,TOLL,10-20,2,1,50.0
1110,GAUP1-DELP1,Zoom,TOLL,20-40,2,2,100.0
1111,GAUP1-DELP1,Zoom,UNS,20-40,2,1,50.0
1112,GAUP1-HYDP1,Industrial,?,10-20,12,10,83.33333333333333
1113,GAUP1-HYDP1,Industrial,?,20-40,8,8,100.0
1114,GAUP1-HYDP1,Industrial,?,5-10,1,1,100.0
1115,GAUP1-HYDP1,Industrial,?,>=60,6,6,100.0
1116,GAUP1-HYDP1,Industrial,TOLL,10-20,2,2,100.0
1117,GAUP1-HYDP1,Industrial,TOLL,20-40,4,3,75.0
1118,GAUP1-HYDP1,Industrial,TOLL,>=60,1,1,100.0
1119,GAUP1-HYDP1,Industrial,UNS,10-20,1,1,100.0
1120,GAUP1-HYDP1,Industrial,UNS,20-40,1,1,100.0
1121,GAUP1-MAAP1,Industrial,?,10-20,3,2,66.66666666666667
1122,GAUP1-MAAP1,Industrial,?,40-60,1,1,100.0
1123,GAUP1-MAAP1,Industrial,TOLL,<5,1,0,0.0
1124,GAUP1-MAAP1,Industrial,TOLL,>=60,1,1,100.0
1125,GAUP1-MAAP1,Industrial,UNS,10-20,2,2,100.0
1126,GAUP1-MAAP1,Industrial,UNS,>=60,1,1,100.0
1127,GAUP1-MAAP1,Zoom,?,10-20,9,9,100.0
1128,GAUP1-MAAP1,Zoom,?,20-40,7,7,100.0
1129,GAUP1-MAAP1,Zoom,?,40-60,3,3,100.0
1130,GAUP1-MAAP1,Zoom,?,5-10,2,2,100.0
1131,GAUP1-MAAP1,Zoom,?,<5,1,1,100.0
1132,GAUP1-MAAP1,Zoom,?,>=60,1,1,100.0
1133,GAUP1-MAAP1,Zoom,CHECKPOST,10-20,1,1,100.0
1134,GAUP1-MAAP1,Zoom,TOLL,10-20,1,1,100.0
1135,GAUP1-MAAP1,Zoom,TOLL,20-40,2,1,50.0
1136,GAUP1-MAAP1,Zoom,TOLL,<5,1,0,0.0
1137,GAUP1-MAAP1,Zoom,UNS,10-20,1,1,100.0
1138,GAUP1-MAAP1,Zoom,UNS,20-40,1,0,0.0
1139,GAUP1-SXVP1,Green,TOLL,10-20,1,1,100.0
1140,GAUP1-SXVP1,Industrial,?,10-20,9,5,55.55555555555556
1141,GAUP1-SXVP1,Industrial,?,20-40,2,2,100.0
1142,GAUP1-SXVP1,Industrial,?,<5,2,1,50.0
1143,GAUP1-SXVP1,Industrial,?,>=60,1,1,100.0
1144,GAUP1-SXVP1,Industrial,TOLL,10-20,1,1,100.0
1145,GAUP1-SXVP1,Industrial,TOLL,20-40,2,1,50.0
1146,GAUP1-VGAP1,Industrial,TOLL,20-40,1,0,0.0
1147,GAUP1-VGAP1,Industrial,UNS,10-20,1,0,0.0
1148,GTYP1-BOMP1,Green,?,10-20,1,1,100.0
1149,GTYP1-BOMP1,Green,?,>=60,2,2,100.0
1150,GTYP1-BOMP1,Green,FUEL_PUMP,20-40,4,0,0.0
1151,GTYP1-BOMP1,Green,TOLL,10-20,3,0,0.0
1152,GTYP1-BOMP1,Green,TOLL,20-40,1,1,100.0
1153,GTYP1-BOMP1,Green,TOLL,>=60,1,1,100.0
1154,GTYP1-BOMP1,Green,UNS,10-20,3,1,33.333333333333336
1155,GTYP1-BOMP1,Green,UNS,20-40,1,1,100.0
1156,GTYP1-BOMP1,Green,UNS,5-10,1,1,100.0
1157,HYDP1-AMBP1,Green,FUEL_PUMP,10-20,1,0,0.0
1158,HYDP1-AMBP1,Green,TOLL,>=60,1,1,100.0
1159,HYDP1-AMBP1,Industrial,TOLL,10-20,2,0,0.0
1160,HYDP1-AMBP1,Industrial,TOLL,20-40,1,1,100.0
1161,HYDP1-AMBP1,Industrial,UNS,5-10,1,0,0.0
1162,HYDP1-AMBP1,Industrial,UNS,<5,1,0,0.0
1163,HYDP1-AMBP1,Zoom,TOLL,10-20,1,1,100.0
1164,HYDP1-AMBP1,Zoom,UNS,10-20,2,1,50.0
1165,HYDP1-AMDP1,Green,?,10-20,1,1,100.0
1166,HYDP1-AMDP1,Green,?,20-40,1,1,100.0
1167,HYDP1-AMDP1,Green,FUEL_PUMP,10-20,1,0,0.0
1168,HYDP1-AMDP1,Green,UNS,10-20,2,1,50.0
1169,HYDP1-AMDP1,Green,UNS,20-40,1,1,100.0
1170,HYDP1-AMDP1,Zoom,UNS,10-20,3,0,0.0
1171,HYDP1-BHCP1,Industrial,?,10-20,3,3,100.0
1172,HYDP1-BHCP1,Industrial,?,20-40,1,1,100.0
1173,HYDP1-BHCP1,Industrial,?,5-10,1,1,100.0
1174,HYDP1-BHCP1,Industrial,PITSTOP,>=60,1,1,100.0
1175,HYDP1-BHCP1,Industrial,TOLL,10-20,4,1,25.0
1176,HYDP1-BHCP1,Industrial,TOLL,20-40,2,2,100.0
1177,HYDP1-BHCP1,Industrial,TOLL,40-60,1,1,100.0
1178,HYDP1-BHCP1,Industrial,TOLL,5-10,1,1,100.0
1179,HYDP1-BHCP1,Industrial,TOLL,<5,1,0,0.0
1180,HYDP1-BHCP1,Industrial,UNS,10-20,2,2,100.0
1181,HYDP1-BHCP1,Industrial,UNS,20-40,1,1,100.0
1182,HYDP1-BLRP1,Industrial,FUEL_PUMP,20-40,1,1,100.0
1183,HYDP1-BLRP1,Industrial,TOLL,10-20,3,0,0.0
1184,HYDP1-BLRP1,Industrial,UNS,10-20,4,3,75.0
1185,HYDP1-BLRP2,Zoom,CLIENT_WAREHOUSE,>=60,1,1,100.0
1186,HYDP1-BOMP1,Ecom,CHECKPOST,10-20,1,0,0.0
1187,HYDP1-BOMP1,Ecom,PITSTOP,<5,1,0,0.0
1188,HYDP1-BOMP1,Ecom,TOLL,10-20,1,1,100.0
1189,HYDP1-BOMP1,Ecom,UNS,10-20,1,1,100.0
1190,HYDP1-BOMP1,Industrial,?,10-20,2,2,100.0
1191,HYDP1-BOMP1,Industrial,?,20-40,1,1,100.0
1192,HYDP1-BOMP1,Industrial,?,<5,2,0,0.0
1193,HYDP1-BOMP1,Industrial,?,>=60,1,1,100.0
1194,HYDP1-BOMP1,Industrial,CHECKPOST,10-20,2,2,100.0
1195,HYDP1-BOMP1,Industrial,CHECKPOST,20-40,1,1,100.0
1196,HYDP1-BOMP1,Industrial,CHECKPOST,5-10,1,0,0.0
1197,HYDP1-BOMP1,Industrial,CHECKPOST,>=60,2,2,100.0
1198,HYDP1-BOMP1,Industrial,FUEL_PUMP,10-20,1,0,0.0
1199,HYDP1-BOMP1,Industrial,PITSTOP,10-20,1,0,0.0
1200,HYDP1-BOMP1,Industrial,TOLL,10-20,1,0,0.0
1201,HYDP1-BOMP1,Industrial,TOLL,20-40,1,1,100.0
1202,HYDP1-BOMP1,Industrial,TOLL,5-10,2,0,0.0
1203,HYDP1-BOMP1,Industrial,TOLL,<5,1,0,0.0
1204,HYDP1-BOMP1,Industrial,UNS,10-20,5,2,40.0
1205,HYDP1-BOMP1,Industrial,UNS,20-40,2,2,100.0
1206,HYDP1-BOMP1,Industrial,UNS,40-60,1,1,100.0
1207,HYDP1-CCUP1,Ecom,?,20-40,1,1,100.0
1208,HYDP1-CCUP1,Ecom,TOLL,10-20,1,0,0.0
1209,HYDP1-CCUP1,Ecom,TOLL,5-10,1,0,0.0
1210,HYDP1-CCUP1,Ecom,UNS,10-20,3,2,66.66666666666667
1211,HYDP1-CCUP1,Industrial,?,40-60,1,1,100.0
1212,HYDP1-CCUP1,Industrial,TOLL,10-20,1,1,100.0
1213,HYDP1-CCUP1,Industrial,TOLL,20-40,2,2,100.0
1214,HYDP1-CCUP1,Industrial,TOLL,40-60,2,2,100.0
1215,HYDP1-CCUP1,Industrial,UNS,20-40,2,2,100.0
1216,HYDP1-CCUP1,Zoom,?,10-20,1,1,100.0
1217,HYDP1-CCUP1,Zoom,?,20-40,1,1,100.0
1218,HYDP1-DELP1,Green,?,10-20,1,1,100.0
1219,HYDP1-DELP1,Green,?,20-40,1,1,100.0
1220,HYDP1-DELP1,Green,CHECKPOST,10-20,2,0,0.0
1221,HYDP1-DELP1,Green,CHECKPOST,5-10,1,0,0.0
1222,HYDP1-DELP1,Green,FUEL_PUMP,20-40,2,0,0.0
1223,HYDP1-DELP1,Green,TOLL,20-40,2,2,100.0
1224,HYDP1-DELP1,Green,TOLL,40-60,1,1,100.0
1225,HYDP1-DELP1,Green,TOLL,>=60,1,1,100.0
1226,HYDP1-DELP1,Green,UNS,10-20,1,0,0.0
1227,HYDP1-DELP1,Industrial,?,10-20,5,3,60.0
1228,HYDP1-DELP1,Industrial,?,20-40,1,0,0.0
1229,HYDP1-DELP1,Industrial,?,>=60,3,3,100.0
1230,HYDP1-DELP1,Industrial,CHECKPOST,10-20,1,0,0.0
1231,HYDP1-DELP1,Industrial,CHECKPOST,20-40,6,1,16.666666666666668
1232,HYDP1-DELP1,Industrial,CHECKPOST,40-60,1,1,100.0
1233,HYDP1-DELP1,Industrial,FUEL_PUMP,10-20,2,0,0.0
1234,HYDP1-DELP1,Industrial,FUEL_PUMP,20-40,2,1,50.0
1235,HYDP1-DELP1,Industrial,TOLL,10-20,4,0,0.0
1236,HYDP1-DELP1,Industrial,TOLL,20-40,7,0,0.0
1237,HYDP1-DELP1,Industrial,TOLL,40-60,1,1,100.0
1238,HYDP1-DELP1,Industrial,TOLL,5-10,2,0,0.0
1239,HYDP1-DELP1,Industrial,UNS,10-20,5,1,20.0
1240,HYDP1-DELP1,Industrial,UNS,20-40,1,1,100.0
1241,HYDP1-DELP1,Industrial,UNS,<5,1,0,0.0
1242,HYDP1-DELP1,Zoom,?,10-20,1,0,0.0
1243,HYDP1-DELP1,Zoom,CHECKPOST,10-20,4,0,0.0
1244,HYDP1-DELP1,Zoom,FUEL_PUMP,10-20,1,0,0.0
1245,HYDP1-DELP1,Zoom,TOLL,10-20,2,2,100.0
1246,HYDP1-DELP1,Zoom,TOLL,20-40,1,1,100.0
1247,HYDP1-DELP1,Zoom,TOLL,5-10,1,0,0.0
1248,HYDP1-DELP1,Zoom,UNS,10-20,2,1,50.0
1249,HYDP1-DELP1,Zoom,UNS,20-40,1,0,0.0
1250,HYDP1-GAUP1,Industrial,?,10-20,12,11,91.66666666666667
1251,HYDP1-GAUP1,Industrial,?,20-40,4,4,100.0
1252,HYDP1-GAUP1,Industrial,?,5-10,1,1,100.0
1253,HYDP1-GAUP1,Industrial,CHECKPOST,10-20,1,1,100.0
1254,HYDP1-GAUP1,Industrial,FUEL_PUMP,10-20,2,1,50.0
1255,HYDP1-GAUP1,Industrial,FUEL_PUMP,40-60,1,1,100.0
1256,HYDP1-GAUP1,Industrial,PITSTOP,>=60,1,1,100.0
1257,HYDP1-GAUP1,Industrial,TOLL,10-20,2,0,0.0
1258,HYDP1-GAUP1,Industrial,TOLL,40-60,1,1,100.0
1259,HYDP1-GAUP1,Industrial,UNS,10-20,4,3,75.0
1260,HYDP1-GAUP1,Industrial,UNS,20-40,5,2,40.0
1261,HYDP1-HBXP1,Industrial,CHECKPOST,20-40,1,1,100.0
1262,HYDP1-HBXP1,Industrial,PITSTOP,20-40,1,1,100.0
1263,HYDP1-HBXP1,Industrial,PITSTOP,>=60,1,1,100.0
1264,HYDP1-HBXP1,Industrial,UNS,10-20,1,1,100.0
1265,HYDP1-MAAP1,Industrial,?,10-20,2,2,100.0
1266,HYDP1-MAAP1,Industrial,?,20-40,1,1,100.0
1267,HYDP1-MAAP1,Industrial,TOLL,10-20,1,0,0.0
1268,HYDP1-MAAP1,Industrial,UNS,10-20,1,0,0.0
1269,HYDP1-MAAP1,Industrial,UNS,40-60,1,1,100.0
1270,HYDP1-MAQP1,Industrial,?,20-40,1,1,100.0
1271,HYDP1-MAQP1,Industrial,?,>=60,1,1,100.0
1272,HYDP1-MAQP1,Industrial,FUEL_PUMP,10-20,1,0,0.0
1273,HYDP1-MAQP1,Industrial,PITSTOP,>=60,1,1,100.0
1274,HYDP1-MAQP1,Industrial,TOLL,10-20,4,2,50.0
1275,HYDP1-MAQP1,Industrial,TOLL,20-40,1,0,0.0
1276,HYDP1-MAQP1,Industrial,TOLL,5-10,1,0,0.0
1277,HYDP1-MAQP1,Industrial,TOLL,>=60,1,1,100.0
1278,HYDP1-MAQP1,Industrial,UNS,10-20,1,1,100.0
1279,HYDP1-MAQP1,Industrial,UNS,40-60,2,2,100.0
1280,HYDP1-RPRP1,Industrial,?,20-40,1,1,100.0
1281,HYDP1-RPRP1,Industrial,?,5-10,1,0,0.0
1282,HYDP1-RPRP1,Industrial,PITSTOP,>=60,1,1,100.0
1283,HYDP1-RPRP1,Industrial,TOLL,10-20,1,0,0.0
1284,HYDP1-RPRP1,Industrial,TOLL,20-40,1,0,0.0
1285,HYDP1-RPRP1,Industrial,UNS,10-20,1,0,0.0
1286,HYDP1-RPRP1,Industrial,UNS,20-40,1,0,0.0
1287,HYDP1-SXVP1,Industrial,?,10-20,1,1,100.0
1288,HYDP1-SXVP1,Industrial,?,<5,1,1,100.0
1289,HYDP1-SXVP1,Industrial,?,>=60,1,1,100.0
1290,HYDP1-SXVP1,Industrial,TOLL,20-40,1,0,0.0
1291,HYDP1-SXVP1,Industrial,UNS,10-20,1,1,100.0
1292,HYDP1-VTZP1,Green,UNS,20-40,1,1,100.0
1293,IDRP1-AMBP1,Ecom,?,10-20,2,1,50.0
1294,IDRP1-AMBP1,Ecom,UNS,10-20,1,0,0.0
1295,IDRP1-AMBP1,Industrial,?,10-20,3,2,66.66666666666667
1296,IDRP1-AMBP1,Industrial,TOLL,10-20,5,3,60.0
1297,IDRP1-AMBP1,Industrial,TOLL,20-40,1,0,0.0
1298,IDRP1-AMBP1,Industrial,UNS,10-20,2,2,100.0
1299,IDRP1-AMBP1,Industrial,UNS,20-40,1,1,100.0
1300,IDRP1-BLRP2,Zoom,UNS,<5,1,0,0.0
1301,IDRP1-CCUP1,Industrial,?,10-20,3,2,66.66666666666667
1302,IDRP1-CCUP1,Industrial,?,20-40,1,1,100.0
1303,IDRP1-CCUP1,Industrial,?,40-60,1,1,100.0
1304,IDRP1-CCUP1,Industrial,FUEL_PUMP,20-40,1,0,0.0
1305,IDRP1-DELP1,Industrial,?,10-20,1,1,100.0
1306,IDRP1-DELP1,Industrial,TOLL,10-20,1,0,0.0
1307,IDRP1-DELP1,Zoom,?,20-40,1,1,100.0
1308,IDRP1-DELP1,Zoom,UNS,10-20,2,1,50.0
1309,IDRP1-HYDP1,Industrial,?,20-40,1,1,100.0
1310,IDRP1-MAAP1,Industrial,?,10-20,4,3,75.0
1311,IDRP1-MAAP1,Industrial,?,20-40,1,1,100.0
1312,IDRP1-MAAP1,Industrial,?,5-10,1,1,100.0
1313,IDRP1-MAAP1,Industrial,?,<5,1,1,100.0
1314,IDRP1-MAAP1,Industrial,?,>=60,1,1,100.0
1315,IDRP1-MAAP1,Industrial,CHECKPOST,<5,1,0,0.0
1316,IDRP1-MAAP1,Industrial,PITSTOP,>=60,1,1,100.0
1317,IDRP1-MAAP1,Industrial,UNS,10-20,2,1,50.0
1318,IDRP1-MAAP1,Industrial,UNS,20-40,1,0,0.0
1319,IDRP1-PGHP1,Industrial,?,10-20,2,1,50.0
1320,IDRP1-PGHP1,Industrial,TOLL,10-20,1,0,0.0
1321,IDRP1-PGHP1,Industrial,TOLL,20-40,1,0,0.0
1322,IDRP1-PGHP1,Industrial,UNS,20-40,2,2,100.0
1323,IDRP1-PNQP1,Green,CHECKPOST,20-40,1,0,0.0
1324,IDRP1-PNQP1,Green,TOLL,20-40,1,1,100.0
1325,IDRP1-PNQP1,Green,UNS,20-40,1,0,0.0
1326,IDRP1-PNQP1,Industrial,UNS,10-20,1,0,0.0
1327,IXWP1-AMBP1,Industrial,?,10-20,3,3,100.0
1328,IXWP1-AMBP1,Industrial,?,20-40,3,2,66.66666666666667
1329,IXWP1-AMBP1,Industrial,?,5-10,2,2,100.0
1330,IXWP1-AMBP1,Industrial,FUEL_PUMP,20-40,1,1,100.0
1331,IXWP1-AMBP1,Industrial,TOLL,10-20,3,1,33.333333333333336
1332,IXWP1-AMBP1,Industrial,TOLL,20-40,2,0,0.0
1333,IXWP1-AMBP1,Industrial,TOLL,5-10,1,0,0.0
1334,IXWP1-AMBP1,Industrial,TOLL,>=60,1,1,100.0
1335,IXWP1-AMBP1,Industrial,UNS,10-20,7,2,28.571428571428573
1336,IXWP1-AMBP1,Industrial,UNS,20-40,2,1,50.0
1337,IXWP1-DELP1,Zoom,?,10-20,2,2,100.0
1338,IXWP1-DELP1,Zoom,?,20-40,1,1,100.0
1339,IXWP1-DELP1,Zoom,?,40-60,1,1,100.0
1340,IXWP1-DELP1,Zoom,TOLL,10-20,2,0,0.0
1341,IXWP1-DELP1,Zoom,TOLL,20-40,1,1,100.0
1342,IXWP1-DELP1,Zoom,UNS,20-40,2,0,0.0
1343,IXWP1-KNUP1,Industrial,UNS,10-20,1,0,0.0
1344,IXWP1-KNUP1,Industrial,UNS,20-40,1,1,100.0
1345,IXWP1-MAAP1,Industrial,?,10-20,3,3,100.0
1346,IXWP1-MAAP1,Industrial,?,20-40,2,2,100.0
1347,IXWP1-MAAP1,Industrial,?,>=60,2,2,100.0
1348,IXWP1-MAAP1,Industrial,FUEL_PUMP,20-40,1,1,100.0
1349,IXWP1-MAAP1,Industrial,TOLL,>=60,1,1,100.0
1350,IXWP1-MAAP1,Industrial,UNS,20-40,1,1,100.0
1351,IXWP1-PGHP1,Industrial,?,10-20,1,1,100.0
1352,IXWP1-PGHP1,Industrial,TOLL,>=60,1,1,100.0
1353,IXWP1-PGHP1,Industrial,UNS,20-40,1,0,0.0
1354,JAIP1-BOMP1,Zoom,?,20-40,1,1,100.0
1355,JAIP1-BOMP1,Zoom,TOLL,10-20,1,1,100.0
1356,JAIP1-BOMP1,Zoom,UNS,10-20,1,1,100.0
1357,JAIP1-GAUP1,Industrial,?,10-20,1,1,100.0
1358,JAIP1-GAUP1,Industrial,TOLL,10-20,1,0,0.0
1359,JAIP1-IDRP1,Zoom,PITSTOP,10-20,1,1,100.0
1360,JAIP1-IDRP1,Zoom,UNS,10-20,1,1,100.0
1361,JAIP1-IDRP1,Zoom,UNS,20-40,1,1,100.0
1362,JHSP1-BLRP1,Industrial,PITSTOP,10-20,1,1,100.0
1363,JHSP1-BLRP1,Industrial,UNS,10-20,1,1,100.0
1364,JHSP1-BOMP1,Industrial,?,10-20,1,1,100.0
1365,JHSP1-BOMP1,Industrial,FUEL_PUMP,10-20,1,0,0.0
1366,JHSP1-PNQP1,Green,?,10-20,1,0,0.0
1367,JHSP1-PNQP1,Green,?,20-40,4,4,100.0
1368,JHSP1-PNQP1,Green,?,40-60,1,1,100.0
1369,JHSP1-PNQP1,Green,?,5-10,1,1,100.0
1370,JHSP1-PNQP1,Green,CHECKPOST,>=60,1,1,100.0
1371,JHSP1-PNQP1,Green,TOLL,10-20,1,0,0.0
1372,JHSP1-PNQP1,Green,TOLL,20-40,1,1,100.0
1373,JHSP1-PNQP1,Green,UNS,40-60,1,1,100.0
1374,KNUP1-AMDP1,Green,?,10-20,3,2,66.66666666666667
1375,KNUP1-AMDP1,Green,?,20-40,1,1,100.0
1376,KNUP1-AMDP1,Green,?,>=60,1,1,100.0
1377,KNUP1-AMDP1,Green,TOLL,10-20,3,1,33.333333333333336
1378,KNUP1-AMDP1,Green,UNS,>=60,1,1,100.0
1379,KNUP1-BHCP1,Industrial,?,20-40,1,1,100.0
1380,KNUP1-CCUP1,Industrial,?,10-20,1,1,100.0
1381,KNUP1-CCUP1,Industrial,?,20-40,1,1,100.0
1382,KNUP1-CCUP1,Industrial,FUEL_PUMP,20-40,1,0,0.0
1383,KNUP1-CCUP1,Industrial,TOLL,10-20,1,0,0.0
1384,KNUP1-DELP1,Zoom,TOLL,10-20,1,0,0.0
1385,KNUP1-DELP1,Zoom,UNS,20-40,2,2,100.0
1386,KNUP1-HYDP1,Industrial,?,5-10,1,1,100.0
1387,KNUP1-HYDP1,Industrial,?,>=60,1,1,100.0
1388,KNUP1-HYDP1,Industrial,CHECKPOST,10-20,1,0,0.0
1389,KNUP1-HYDP1,Industrial,CHECKPOST,20-40,1,0,0.0
1390,KNUP1-HYDP1,Industrial,PITSTOP,>=60,1,1,100.0
1391,KNUP1-HYDP1,Industrial,TOLL,10-20,1,0,0.0
1392,KNUP1-HYDP1,Industrial,UNS,10-20,2,0,0.0
1393,KNUP1-IDRP1,Industrial,?,10-20,1,1,100.0
1394,KNUP1-IXWP1,Industrial,?,20-40,1,1,100.0
1395,KNUP1-IXWP1,Industrial,?,>=60,1,1,100.0
1396,KNUP1-IXWP1,Industrial,TOLL,5-10,1,0,0.0
1397,KNUP1-NAGP1,Zoom,CHECKPOST,10-20,1,0,0.0
1398,KNUP1-NAGP1,Zoom,FUEL_PUMP,20-40,1,0,0.0
1399,KNUP1-NAGP1,Zoom,TOLL,10-20,1,0,0.0
1400,KNUP1-VGAP1,Industrial,?,10-20,1,0,0.0
1401,KNUP1-VGAP1,Industrial,TOLL,10-20,3,1,33.333333333333336
1402,KNUP1-VGAP1,Industrial,TOLL,20-40,1,0,0.0
1403,KNUP1-VGAP1,Industrial,TOLL,40-60,1,0,0.0
1404,KNUP1-VGAP1,Industrial,UNS,10-20,2,1,50.0
1405,KNUP1-VGAP1,Industrial,UNS,20-40,2,2,100.0
1406,MAAP1-AMBP1,Industrial,?,10-20,1,1,100.0
1407,MAAP1-AMBP1,Industrial,?,20-40,2,2,100.0
1408,MAAP1-AMBP1,Industrial,FUEL_PUMP,10-20,2,0,0.0
1409,MAAP1-AMBP1,Industrial,TOLL,20-40,1,1,100.0
1410,MAAP1-AMBP1,Industrial,UNS,20-40,1,1,100.0
1411,MAAP1-AMBP1,Zoom,CHECKPOST,10-20,1,0,0.0
1412,MAAP1-AMBP1,Zoom,CHECKPOST,5-10,1,0,0.0
1413,MAAP1-AMBP1,Zoom,TOLL,10-20,1,1,100.0
1414,MAAP1-AMBP1,Zoom,UNS,10-20,3,1,33.333333333333336
1415,MAAP1-AMBP1,Zoom,UNS,20-40,1,1,100.0
1416,MAAP1-AMDP1,Industrial,?,10-20,2,1,50.0
1417,MAAP1-AMDP1,Industrial,CHECKPOST,10-20,1,0,0.0
1418,MAAP1-AMDP1,Industrial,FUEL_PUMP,40-60,1,0,0.0
1419,MAAP1-AMDP1,Industrial,TOLL,10-20,4,2,50.0
1420,MAAP1-AMDP1,Industrial,UNS,10-20,2,2,100.0
1421,MAAP1-AMDP1,Zoom,?,10-20,2,2,100.0
1422,MAAP1-AMDP1,Zoom,CHECKPOST,10-20,2,0,0.0
1423,MAAP1-AMDP1,Zoom,TOLL,20-40,1,1,100.0
1424,MAAP1-AMDP1,Zoom,TOLL,5-10,1,0,0.0
1425,MAAP1-AMDP1,Zoom,UNS,10-20,3,2,66.66666666666667
1426,MAAP1-AMDP1,Zoom,UNS,5-10,1,0,0.0
1427,MAAP1-BDQP1,Industrial,TOLL,5-10,1,0,0.0
1428,MAAP1-BDQP1,Industrial,UNS,10-20,2,2,100.0
1429,MAAP1-BOMP1,Green,?,10-20,1,1,100.0
1430,MAAP1-BOMP1,Green,FUEL_PUMP,>=60,1,0,0.0
1431,MAAP1-BOMP1,Green,TOLL,10-20,2,1,50.0
1432,MAAP1-BOMP1,Green,TOLL,40-60,1,1,100.0
1433,MAAP1-BOMP1,Green,UNS,20-40,1,1,100.0
1434,MAAP1-BOMP1,Industrial,?,>=60,1,1,100.0
1435,MAAP1-BOMP1,Industrial,CHECKPOST,10-20,1,0,0.0
1436,MAAP1-BOMP1,Industrial,CHECKPOST,20-40,1,1,100.0
1437,MAAP1-BOMP1,Industrial,CHECKPOST,40-60,1,1,100.0
1438,MAAP1-BOMP1,Industrial,FUEL_PUMP,20-40,2,1,50.0
1439,MAAP1-BOMP1,Industrial,FUEL_PUMP,40-60,2,0,0.0
1440,MAAP1-BOMP1,Industrial,FUEL_PUMP,>=60,1,1,100.0
1441,MAAP1-BOMP1,Industrial,PITSTOP,40-60,1,1,100.0
1442,MAAP1-BOMP1,Industrial,TOLL,10-20,4,4,100.0
1443,MAAP1-BOMP1,Industrial,UNS,10-20,5,2,40.0
1444,MAAP1-BOMP1,Industrial,UNS,20-40,2,2,100.0
1445,MAAP1-BOMP1,Zoom,CHECKPOST,20-40,1,0,0.0
1446,MAAP1-BOMP1,Zoom,FUEL_PUMP,20-40,1,0,0.0
1447,MAAP1-BOMP1,Zoom,PITSTOP,10-20,1,0,0.0
1448,MAAP1-BOMP1,Zoom,TOLL,10-20,2,1,50.0
1449,MAAP1-BOMP1,Zoom,TOLL,20-40,1,1,100.0
1450,MAAP1-BOMP1,Zoom,TOLL,>=60,1,1,100.0
1451,MAAP1-BOMP1,Zoom,UNS,10-20,2,2,100.0
1452,MAAP1-BOMP1,Zoom,UNS,20-40,3,3,100.0
1453,MAAP1-CCUP1,Industrial,?,20-40,1,1,100.0
1454,MAAP1-CCUP1,Industrial,FUEL_PUMP,20-40,1,1,100.0
1455,MAAP1-CCUP1,Zoom,?,10-20,1,1,100.0
1456,MAAP1-CCUP1,Zoom,?,20-40,1,0,0.0
1457,MAAP1-CCUP1,Zoom,TOLL,10-20,1,0,0.0
1458,MAAP1-CCUP1,Zoom,TOLL,5-10,1,0,0.0
1459,MAAP1-CCUP1,Zoom,UNS,10-20,1,0,0.0
1460,MAAP1-CCUP1,Zoom,UNS,20-40,1,0,0.0
1461,MAAP1-DELP1,Industrial,?,10-20,1,1,100.0
1462,MAAP1-DELP1,Industrial,?,20-40,9,7,77.77777777777777
1463,MAAP1-DELP1,Industrial,?,40-60,1,1,100.0
1464,MAAP1-DELP1,Industrial,?,>=60,3,3,100.0
1465,MAAP1-DELP1,Industrial,CHECKPOST,20-40,5,2,40.0
1466,MAAP1-DELP1,Industrial,CHECKPOST,40-60,1,1,100.0
1467,MAAP1-DELP1,Industrial,CHECKPOST,5-10,1,0,0.0
1468,MAAP1-DELP1,Industrial,FUEL_PUMP,10-20,1,0,0.0
1469,MAAP1-DELP1,Industrial,FUEL_PUMP,20-40,2,0,0.0
1470,MAAP1-DELP1,Industrial,TOLL,10-20,5,1,20.0
1471,MAAP1-DELP1,Industrial,TOLL,20-40,3,0,0.0
1472,MAAP1-DELP1,Industrial,UNS,10-20,7,3,42.857142857142854
1473,MAAP1-DELP1,Industrial,UNS,20-40,1,1,100.0
1474,MAAP1-DELP1,Industrial,UNS,5-10,1,1,100.0
1475,MAAP1-DELP1,Industrial,UNS,<5,1,0,0.0
1476,MAAP1-DELP1,Industrial,UNS,>=60,3,3,100.0
1477,MAAP1-DELP1,Zoom,?,10-20,5,4,80.0
1478,MAAP1-DELP1,Zoom,?,>=60,1,1,100.0
1479,MAAP1-DELP1,Zoom,CHECKPOST,10-20,1,0,0.0
1480,MAAP1-DELP1,Zoom,FUEL_PUMP,20-40,1,0,0.0
1481,MAAP1-DELP1,Zoom,TOLL,10-20,6,2,33.333333333333336
1482,MAAP1-DELP1,Zoom,TOLL,20-40,1,0,0.0
1483,MAAP1-DELP1,Zoom,TOLL,5-10,1,0,0.0
1484,MAAP1-DELP1,Zoom,TOLL,>=60,1,1,100.0
1485,MAAP1-DELP1,Zoom,UNS,10-20,7,2,28.571428571428573
1486,MAAP1-DELP1,Zoom,UNS,20-40,3,3,100.0
1487,MAAP1-DELP3,Industrial,?,20-40,1,1,100.0
1488,MAAP1-DELP3,Industrial,?,40-60,1,1,100.0
1489,MAAP1-DELP3,Industrial,TOLL,10-20,1,0,0.0
1490,MAAP1-DELP3,Industrial,TOLL,20-40,4,3,75.0
1491,MAAP1-DELP3,Industrial,TOLL,5-10,1,0,0.0
1492,MAAP1-DELP3,Industrial,TOLL,>=60,1,1,100.0
1493,MAAP1-DELP3,Industrial,UNS,10-20,5,3,60.0
1494,MAAP1-DELP3,Industrial,UNS,20-40,1,0,0.0
1495,MAAP1-DELP3,Industrial,UNS,40-60,1,1,100.0
1496,MAAP1-DELP3,Industrial,UNS,>=60,1,1,100.0
1497,MAAP1-GAUP1,Zoom,?,10-20,2,1,50.0
1498,MAAP1-GAUP1,Zoom,?,<5,1,0,0.0
1499,MAAP1-GAUP1,Zoom,?,>=60,1,1,100.0
1500,MAAP1-HBXP1,Industrial,CHECKPOST,10-20,1,1,100.0
1501,MAAP1-HBXP1,Industrial,UNS,20-40,1,1,100.0
1502,MAAP1-HYDP1,Ecom,?,20-40,1,1,100.0
1503,MAAP1-HYDP1,Ecom,FUEL_PUMP,10-20,1,0,0.0
1504,MAAP1-HYDP1,Ecom,TOLL,10-20,1,1,100.0
1505,MAAP1-HYDP1,Ecom,UNS,10-20,1,0,0.0
1506,MAAP1-HYDP1,Green,?,20-40,2,0,0.0
1507,MAAP1-HYDP1,Green,FUEL_PUMP,10-20,1,0,0.0
1508,MAAP1-HYDP1,Industrial,?,10-20,3,3,100.0
1509,MAAP1-HYDP1,Industrial,?,20-40,2,0,0.0
1510,MAAP1-HYDP1,Industrial,?,40-60,1,1,100.0
1511,MAAP1-HYDP1,Industrial,?,<5,1,0,0.0
1512,MAAP1-HYDP1,Industrial,PITSTOP,10-20,1,1,100.0
1513,MAAP1-HYDP1,Industrial,TOLL,10-20,1,1,100.0
1514,MAAP1-HYDP1,Industrial,TOLL,5-10,2,1,50.0
1515,MAAP1-HYDP1,Industrial,UNS,10-20,7,2,28.571428571428573
1516,MAAP1-HYDP1,Industrial,UNS,20-40,3,2,66.66666666666667
1517,MAAP1-HYDP1,Industrial,UNS,40-60,1,1,100.0
1518,MAAP1-HYDP1,Industrial,UNS,>=60,1,1,100.0
1519,MAAP1-IDRP1,Industrial,?,10-20,2,1,50.0
1520,MAAP1-IDRP1,Industrial,?,20-40,3,3,100.0
1521,MAAP1-IDRP1,Industrial,CHECKPOST,5-10,1,0,0.0
1522,MAAP1-IDRP1,Industrial,CHECKPOST,<5,1,0,0.0
1523,MAAP1-IDRP1,Zoom,?,10-20,2,2,100.0
1524,MAAP1-IDRP1,Zoom,?,20-40,2,2,100.0
1525,MAAP1-IDRP1,Zoom,?,40-60,1,1,100.0
1526,MAAP1-IDRP1,Zoom,?,>=60,1,1,100.0
1527,MAAP1-IDRP1,Zoom,FUEL_PUMP,20-40,1,0,0.0
1528,MAAP1-IDRP1,Zoom,UNS,10-20,1,0,0.0
1529,MAAP1-IDRP1,Zoom,UNS,5-10,1,0,0.0
1530,MAAP1-IXWP1,Ecom,?,10-20,2,2,100.0
1531,MAAP1-IXWP1,Ecom,?,20-40,1,1,100.0
1532,MAAP1-IXWP1,Ecom,TOLL,<5,1,0,0.0
1533,MAAP1-IXWP1,Industrial,?,20-40,1,1,100.0
1534,MAAP1-IXWP1,Industrial,TOLL,20-40,1,0,0.0
1535,MAAP1-IXWP1,Industrial,TOLL,5-10,1,0,0.0
1536,MAAP1-IXWP1,Industrial,UNS,10-20,1,1,100.0
1537,MAAP1-MAQP1,Zoom,TOLL,10-20,1,1,100.0
1538,MAAP1-NAGP1,Industrial,?,10-20,1,1,100.0
1539,MAAP1-NAGP1,Industrial,PITSTOP,<5,1,0,0.0
1540,MAAP1-PGHP1,Industrial,?,10-20,7,6,85.71428571428571
1541,MAAP1-PGHP1,Industrial,?,20-40,5,5,100.0
1542,MAAP1-PGHP1,Industrial,?,40-60,2,2,100.0
1543,MAAP1-PGHP1,Industrial,?,5-10,1,1,100.0
1544,MAAP1-PGHP1,Industrial,?,>=60,1,1,100.0
1545,MAAP1-PGHP1,Industrial,CHECKPOST,10-20,6,0,0.0
1546,MAAP1-PGHP1,Industrial,CHECKPOST,20-40,6,1,16.666666666666668
1547,MAAP1-PGHP1,Industrial,CHECKPOST,40-60,1,1,100.0
1548,MAAP1-PGHP1,Industrial,FUEL_PUMP,10-20,1,0,0.0
1549,MAAP1-PGHP1,Industrial,FUEL_PUMP,20-40,4,1,25.0
1550,MAAP1-PGHP1,Industrial,TOLL,10-20,7,1,14.285714285714286
1551,MAAP1-PGHP1,Industrial,TOLL,20-40,7,4,57.142857142857146
1552,MAAP1-PGHP1,Industrial,TOLL,40-60,1,1,100.0
1553,MAAP1-PGHP1,Industrial,TOLL,5-10,2,0,0.0
1554,MAAP1-PGHP1,Industrial,TOLL,<5,1,0,0.0
1555,MAAP1-PGHP1,Industrial,TOLL,>=60,1,1,100.0
1556,MAAP1-PGHP1,Industrial,UNS,10-20,12,2,16.666666666666668
1557,MAAP1-PGHP1,Industrial,UNS,20-40,6,4,66.66666666666667
1558,MAAP1-PGHP1,Industrial,UNS,40-60,2,2,100.0
1559,MAAP1-PGHP1,Industrial,UNS,>=60,3,3,100.0
1560,MAAP1-PNQP1,Industrial,?,20-40,1,1,100.0
1561,MAAP1-PNQP1,Industrial,?,5-10,1,1,100.0
1562,MAAP1-PNQP1,Industrial,CHECKPOST,10-20,3,0,0.0
1563,MAAP1-PNQP1,Industrial,CHECKPOST,20-40,2,0,0.0
1564,MAAP1-PNQP1,Industrial,FUEL_PUMP,10-20,1,0,0.0
1565,MAAP1-PNQP1,Industrial,FUEL_PUMP,20-40,1,0,0.0
1566,MAAP1-PNQP1,Industrial,PITSTOP,10-20,3,2,66.66666666666667
1567,MAAP1-PNQP1,Industrial,PITSTOP,20-40,2,1,50.0
1568,MAAP1-PNQP1,Industrial,TOLL,10-20,10,6,60.0
1569,MAAP1-PNQP1,Industrial,TOLL,5-10,2,0,0.0
1570,MAAP1-PNQP1,Industrial,TOLL,>=60,2,2,100.0
1571,MAAP1-PNQP1,Industrial,UNS,10-20,3,1,33.333333333333336
1572,MAAP1-PNQP1,Industrial,UNS,20-40,1,0,0.0
1573,MAAP1-PNQP1,Zoom,FUEL_PUMP,10-20,1,0,0.0
1574,MAAP1-PNQP1,Zoom,FUEL_PUMP,20-40,1,0,0.0
1575,MAAP1-PNQP1,Zoom,TOLL,>=60,1,1,100.0
1576,MAAP1-PNQP1,Zoom,UNS,10-20,1,1,100.0
1577,MAAP1-SXVP1,Zoom,?,20-40,1,1,100.0
1578,MAAP1-SXVP1,Zoom,TOLL,20-40,1,1,100.0
1579,MAAP1-SXVP1,Zoom,TOLL,>=60,1,1,100.0
1580,MAQP1-BOMP1,Green,?,20-40,1,1,100.0
1581,MAQP1-BOMP1,Green,PITSTOP,10-20,1,1,100.0
1582,MAQP1-BOMP1,Green,UNS,10-20,1,1,100.0
1583,MAQP1-BOMP1,Green,UNS,20-40,2,1,50.0
1584,MAQP1-BOMP1,Green,UNS,5-10,1,1,100.0
1585,MAQP1-BOMP1,Industrial,?,10-20,1,1,100.0
1586,MAQP1-BOMP1,Industrial,CHECKPOST,>=60,1,1,100.0
1587,MAQP1-BOMP1,Industrial,FUEL_PUMP,20-40,1,0,0.0
1588,MAQP1-BOMP1,Industrial,TOLL,5-10,1,1,100.0
1589,MAQP1-BOMP1,Industrial,UNS,10-20,1,0,0.0
1590,MAQP1-BOMP1,Zoom,PITSTOP,40-60,1,0,0.0
1591,MAQP1-BOMP1,Zoom,TOLL,10-20,2,2,100.0
1592,MAQP1-BOMP1,Zoom,TOLL,20-40,2,2,100.0
1593,MAQP1-BOMP1,Zoom,TOLL,5-10,1,0,0.0
1594,MAQP1-BOMP1,Zoom,TOLL,<5,2,0,0.0
1595,MAQP1-BOMP1,Zoom,UNS,10-20,1,1,100.0
1596,MAQP1-CCUP1,Industrial,?,20-40,1,1,100.0
1597,MAQP1-CCUP1,Industrial,TOLL,5-10,1,1,100.0
1598,MAQP1-DELP1,Industrial,?,20-40,1,1,100.0
1599,MAQP1-DELP1,Industrial,?,<5,1,0,0.0
1600,MAQP1-DELP1,Industrial,UNS,10-20,1,1,100.0
1601,MAQP1-DELP1,Industrial,UNS,5-10,1,1,100.0
1602,MAQP1-DELP1,Zoom,?,10-20,2,2,100.0
1603,MAQP1-DELP1,Zoom,CHECKPOST,10-20,1,0,0.0
1604,MAQP1-DELP1,Zoom,FUEL_PUMP,40-60,1,0,0.0
1605,MAQP1-DELP1,Zoom,TOLL,10-20,2,0,0.0
1606,MAQP1-DELP1,Zoom,UNS,10-20,2,2,100.0
1607,MAQP1-DELP1,Zoom,UNS,20-40,1,1,100.0
1608,MAQP1-DELP1,Zoom,UNS,5-10,2,1,50.0
1609,MAQP1-JHSP1,Industrial,?,20-40,1,1,100.0
1610,MAQP1-JHSP1,Industrial,?,>=60,1,1,100.0
1611,MAQP1-JHSP1,Industrial,TOLL,20-40,1,0,0.0
1612,MAQP1-JHSP1,Industrial,TOLL,5-10,1,0,0.0
1613,MAQP1-JHSP1,Industrial,UNS,10-20,1,1,100.0
1614,NAGP1-AMBP1,Industrial,?,10-20,1,1,100.0
1615,NAGP1-AMBP1,Industrial,?,5-10,2,1,50.0
1616,NAGP1-AMBP1,Industrial,?,<5,1,0,0.0
1617,NAGP1-AMBP1,Industrial,TOLL,10-20,1,0,0.0
1618,NAGP1-AMBP1,Industrial,TOLL,20-40,1,0,0.0
1619,NAGP1-AMBP1,Industrial,UNS,5-10,2,2,100.0
1620,NAGP1-BLRP1,Industrial,CHECKPOST,5-10,1,0,0.0
1621,NAGP1-BLRP1,Industrial,TOLL,10-20,1,1,100.0
1622,NAGP1-BLRP1,Industrial,TOLL,5-10,1,0,0.0
1623,NAGP1-BLRP1,Industrial,UNS,10-20,3,1,33.333333333333336
1624,NAGP1-BLRP2,Zoom,TOLL,10-20,1,0,0.0
1625,NAGP1-DELP1,Industrial,?,10-20,2,2,100.0
1626,NAGP1-DELP1,Industrial,?,20-40,6,4,66.66666666666667
1627,NAGP1-DELP1,Industrial,CHECKPOST,10-20,1,0,0.0
1628,NAGP1-DELP1,Industrial,CHECKPOST,>=60,1,1,100.0
1629,NAGP1-DELP1,Industrial,FUEL_PUMP,20-40,1,0,0.0
1630,NAGP1-DELP1,Industrial,FUEL_PUMP,>=60,1,1,100.0
1631,NAGP1-DELP1,Industrial,TOLL,10-20,4,0,0.0
1632,NAGP1-DELP1,Industrial,TOLL,<5,2,0,0.0
1633,NAGP1-DELP1,Industrial,UNS,10-20,1,1,100.0
1634,NAGP1-DELP1,Industrial,UNS,20-40,2,1,50.0
1635,NAGP1-DELP1,Industrial,UNS,40-60,1,1,100.0
1636,NAGP1-DELP1,Industrial,UNS,5-10,1,0,0.0
1637,NAGP1-DELP1,Industrial,UNS,<5,1,0,0.0
1638,NAGP1-DELP1,Zoom,CHECKPOST,20-40,2,1,50.0
1639,NAGP1-DELP1,Zoom,TOLL,40-60,1,1,100.0
1640,NAGP1-DELP1,Zoom,UNS,10-20,1,1,100.0
1641,NAGP1-HYDP1,Industrial,FUEL_PUMP,10-20,1,0,0.0
1642,NAGP1-SXVP1,Industrial,TOLL,10-20,1,0,0.0
1643,NAGP1-SXVP1,Industrial,UNS,20-40,1,1,100.0
1644,NAGP1-SXVP1,Industrial,UNS,>=60,1,1,100.0
1645,NAGP1-VGAP1,Industrial,TOLL,20-40,1,0,0.0
1646,NAGP1-VGAP1,Industrial,UNS,5-10,1,0,0.0
1647,NJPP1-BHCP1,Industrial,?,10-20,17,16,94.11764705882354
1648,NJPP1-BHCP1,Industrial,?,20-40,11,11,100.0
1649,NJPP1-BHCP1,Industrial,?,40-60,3,3,100.0
1650,NJPP1-BHCP1,Industrial,?,5-10,1,1,100.0
1651,NJPP1-BHCP1,Industrial,?,>=60,3,3,100.0
1652,NJPP1-BHCP1,Industrial,FUEL_PUMP,20-40,1,0,0.0
1653,NJPP1-BHCP1,Industrial,FUEL_PUMP,40-60,1,1,100.0
1654,NJPP1-BHCP1,Industrial,TOLL,10-20,1,0,0.0
1655,NJPP1-BHCP1,Industrial,TOLL,20-40,1,1,100.0
1656,NJPP1-BHCP1,Industrial,TOLL,40-60,1,1,100.0
1657,NJPP1-BHCP1,Industrial,TOLL,>=60,1,1,100.0
1658,NJPP1-DELP1,Green,?,10-20,1,1,100.0
1659,NPWP1-AMBP1,Green,?,40-60,1,1,100.0
1660,NPWP1-AMBP1,Green,TOLL,10-20,1,1,100.0
1661,NPWP1-AMBP1,Green,TOLL,>=60,1,1,100.0
1662,NPWP1-AMBP1,Green,UNS,10-20,1,0,0.0
1663,NPWP1-DELP1,Green,?,10-20,1,1,100.0
1664,NPWP1-DELP1,Green,CHECKPOST,>=60,1,1,100.0
1665,NPWP1-DELP1,Green,TOLL,10-20,2,1,50.0
1666,NPWP1-DELP1,Green,TOLL,20-40,2,1,50.0
1667,NPWP1-DELP1,Industrial,?,20-40,4,4,100.0
1668,NPWP1-DELP1,Industrial,TOLL,10-20,1,0,0.0
1669,NPWP1-DELP1,Industrial,UNS,20-40,1,1,100.0
1670,NPWP1-GAUP1,Green,?,10-20,4,4,100.0
1671,NPWP1-GAUP1,Green,?,20-40,7,7,100.0
1672,NPWP1-GAUP1,Green,?,<5,1,0,0.0
1673,NPWP1-GAUP1,Green,?,>=60,2,2,100.0
1674,NPWP1-GAUP1,Green,FUEL_PUMP,20-40,1,1,100.0
1675,NPWP1-GAUP1,Green,TOLL,10-20,1,1,100.0
1676,NPWP1-GAUP1,Green,TOLL,20-40,1,1,100.0
1677,NPWP1-GAUP1,Green,UNS,<5,1,0,0.0
1678,NPWP1-JAIP1,Green,TOLL,10-20,1,1,100.0
1679,PGHP1-BLRP1,Industrial,?,10-20,2,1,50.0
1680,PGHP1-BLRP1,Industrial,?,20-40,1,1,100.0
1681,PGHP1-BLRP1,Industrial,CHECKPOST,20-40,1,0,0.0
1682,PGHP1-BLRP1,Industrial,FUEL_PUMP,10-20,1,0,0.0
1683,PGHP1-BLRP1,Industrial,PITSTOP,10-20,1,1,100.0
1684,PGHP1-BLRP1,Industrial,PITSTOP,5-10,1,0,0.0
1685,PGHP1-BLRP1,Industrial,TOLL,10-20,1,0,0.0
1686,PGHP1-BLRP1,Industrial,TOLL,20-40,4,0,0.0
1687,PGHP1-BLRP1,Industrial,UNS,10-20,5,2,40.0
1688,PGHP1-BLRP1,Industrial,UNS,20-40,1,1,100.0
1689,PGHP1-BOMP1,Industrial,?,10-20,5,2,40.0
1690,PGHP1-BOMP1,Industrial,?,20-40,1,1,100.0
1691,PGHP1-BOMP1,Industrial,?,40-60,1,1,100.0
1692,PGHP1-BOMP1,Industrial,?,5-10,2,1,50.0
1693,PGHP1-BOMP1,Industrial,?,>=60,2,2,100.0
1694,PGHP1-BOMP1,Industrial,CHECKPOST,>=60,1,1,100.0
1695,PGHP1-BOMP1,Industrial,FUEL_PUMP,20-40,1,0,0.0
1696,PGHP1-BOMP1,Industrial,TOLL,10-20,3,2,66.66666666666667
1697,PGHP1-BOMP1,Industrial,TOLL,20-40,1,1,100.0
1698,PGHP1-BOMP1,Industrial,UNS,10-20,4,1,25.0
1699,PGHP1-BOMP1,Industrial,UNS,20-40,1,1,100.0
1700,PGHP1-BOMP1,Industrial,UNS,5-10,1,0,0.0
1701,PGHP1-CCUP1,Industrial,?,20-40,1,1,100.0
1702,PGHP1-CCUP1,Industrial,?,40-60,1,1,100.0
1703,PGHP1-CCUP1,Industrial,?,5-10,1,1,100.0
1704,PGHP1-CCUP1,Industrial,FUEL_PUMP,40-60,1,1,100.0
1705,PGHP1-HBXP1,Industrial,?,10-20,2,1,50.0
1706,PGHP1-HBXP1,Industrial,?,20-40,1,1,100.0
1707,PGHP1-HBXP1,Industrial,?,5-10,2,1,50.0
1708,PGHP1-HBXP1,Industrial,?,<5,1,0,0.0
1709,PGHP1-HBXP1,Industrial,FUEL_PUMP,10-20,1,0,0.0
1710,PGHP1-HBXP1,Industrial,TOLL,10-20,1,0,0.0
1711,PGHP1-HBXP1,Industrial,TOLL,20-40,1,1,100.0
1712,PGHP1-HBXP1,Industrial,TOLL,5-10,1,0,0.0
1713,PGHP1-HBXP1,Industrial,UNS,10-20,1,0,0.0
1714,PGHP1-HBXP1,Industrial,UNS,5-10,1,0,0.0
1715,PGHP1-HBXP1,Industrial,UNS,<5,1,0,0.0
1716,PGHP1-HYDP1,Industrial,?,10-20,1,1,100.0
1717,PGHP1-HYDP1,Industrial,?,>=60,1,1,100.0
1718,PGHP1-HYDP1,Industrial,CHECKPOST,10-20,1,0,0.0
1719,PGHP1-HYDP1,Industrial,CHECKPOST,40-60,1,1,100.0
1720,PGHP1-HYDP1,Industrial,FUEL_PUMP,20-40,2,0,0.0
1721,PGHP1-HYDP1,Industrial,TOLL,20-40,1,0,0.0
1722,PGHP1-HYDP1,Industrial,UNS,10-20,4,2,50.0
1723,PGHP1-HYDP1,Industrial,UNS,>=60,1,1,100.0
1724,PGHP1-IDRP1,Industrial,?,10-20,1,0,0.0
1725,PGHP1-IDRP1,Industrial,FUEL_PUMP,20-40,1,0,0.0
1726,PGHP1-IDRP1,Industrial,TOLL,10-20,1,0,0.0
1727,PGHP1-IDRP1,Industrial,UNS,10-20,1,1,100.0
1728,PGHP1-MAAP1,Green,?,40-60,1,1,100.0
1729,PGHP1-MAAP1,Green,FUEL_PUMP,10-20,1,0,0.0
1730,PGHP1-MAAP1,Green,TOLL,20-40,1,0,0.0
1731,PGHP1-MAQP1,Industrial,?,10-20,2,1,50.0
1732,PGHP1-MAQP1,Industrial,?,20-40,4,4,100.0
1733,PGHP1-MAQP1,Industrial,?,40-60,1,1,100.0
1734,PGHP1-MAQP1,Industrial,?,5-10,1,1,100.0
1735,PGHP1-MAQP1,Industrial,CHECKPOST,10-20,3,0,0.0
1736,PGHP1-MAQP1,Industrial,CHECKPOST,40-60,2,0,0.0
1737,PGHP1-MAQP1,Industrial,FUEL_PUMP,10-20,1,0,0.0
1738,PGHP1-MAQP1,Industrial,PITSTOP,20-40,1,1,100.0
1739,PGHP1-MAQP1,Industrial,TOLL,10-20,5,1,20.0
1740,PGHP1-MAQP1,Industrial,TOLL,20-40,1,0,0.0
1741,PGHP1-MAQP1,Industrial,TOLL,<5,1,0,0.0
1742,PGHP1-MAQP1,Industrial,TOLL,>=60,2,2,100.0
1743,PGHP1-MAQP1,Industrial,UNS,10-20,3,1,33.333333333333336
1744,PGHP1-MAQP1,Industrial,UNS,5-10,1,1,100.0
1745,PGHP1-NAGP1,Industrial,?,10-20,1,1,100.0
1746,PGHP1-NAGP1,Industrial,?,40-60,1,1,100.0
1747,PGHP1-NAGP1,Industrial,?,5-10,1,0,0.0
1748,PGHP1-NAGP1,Industrial,?,<5,1,0,0.0
1749,PGHP1-NAGP1,Industrial,CHECKPOST,5-10,1,0,0.0
1750,PGHP1-NAGP1,Industrial,FUEL_PUMP,20-40,1,0,0.0
1751,PGHP1-NAGP1,Industrial,TOLL,20-40,1,0,0.0
1752,PGHP1-NAGP1,Industrial,UNS,20-40,1,1,100.0
1753,PGHP1-NAGP1,Industrial,UNS,<5,1,0,0.0
1754,PGHP1-RPRP1,Industrial,?,10-20,1,1,100.0
1755,PGHP1-RPRP1,Industrial,?,20-40,1,1,100.0
1756,PGHP1-RPRP1,Industrial,?,<5,1,0,0.0
1757,PGHP1-RPRP1,Industrial,CHECKPOST,5-10,1,0,0.0
1758,PGHP1-RPRP1,Industrial,FUEL_PUMP,20-40,1,0,0.0
1759,PGHP1-RPRP1,Industrial,TOLL,20-40,1,0,0.0
1760,PGHP1-RPRP1,Industrial,TOLL,<5,1,0,0.0
1761,PGHP1-RPRP1,Industrial,UNS,5-10,1,0,0.0
1762,PGHP1-SXVP1,Industrial,UNS,20-40,1,1,100.0
1763,PGHP1-VGAP1,Industrial,?,20-40,1,1,100.0
1764,PGHP1-VGAP1,Industrial,?,<5,1,0,0.0
1765,PGHP1-VGAP1,Industrial,FUEL_PUMP,20-40,1,0,0.0
1766,PGHP1-VGAP1,Industrial,TOLL,10-20,1,0,0.0
1767,PGHP1-VGAP1,Industrial,TOLL,20-40,3,0,0.0
1768,PGHP1-VGAP1,Industrial,TOLL,5-10,1,0,0.0
1769,PGHP1-VGAP1,Industrial,UNS,20-40,1,1,100.0
1770,PNQP1-AMBP1,Industrial,?,10-20,2,2,100.0
1771,PNQP1-AMBP1,Industrial,?,20-40,2,2,100.0
1772,PNQP1-AMBP1,Industrial,FUEL_PUMP,20-40,1,1,100.0
1773,PNQP1-AMBP1,Industrial,PITSTOP,>=60,1,1,100.0
1774,PNQP1-AMBP1,Industrial,UNS,10-20,1,1,100.0
1775,PNQP1-AMDP1,Industrial,?,10-20,1,1,100.0
1776,PNQP1-AMDP1,Industrial,?,20-40,1,0,0.0
1777,PNQP1-AMDP1,Industrial,?,<5,1,0,0.0
1778,PNQP1-AMDP1,Industrial,CHECKPOST,20-40,1,1,100.0
1779,PNQP1-AMDP1,Industrial,CHECKPOST,5-10,1,0,0.0
1780,PNQP1-AMDP1,Industrial,FUEL_PUMP,10-20,2,0,0.0
1781,PNQP1-AMDP1,Industrial,TOLL,5-10,2,1,50.0
1782,PNQP1-AMDP1,Industrial,UNS,10-20,2,1,50.0
1783,PNQP1-AMDP1,Industrial,UNS,20-40,1,1,100.0
1784,PNQP1-AWBP1,Zoom,?,10-20,1,1,100.0
1785,PNQP1-BLRP1,Green,?,40-60,1,1,100.0
1786,PNQP1-BLRP1,Industrial,CHECKPOST,<5,1,0,0.0
1787,PNQP1-BLRP1,Industrial,TOLL,10-20,2,1,50.0
1788,PNQP1-BLRP1,Industrial,TOLL,5-10,1,0,0.0
1789,PNQP1-BLRP1,Industrial,TOLL,>=60,1,1,100.0
1790,PNQP1-BLRP1,Industrial,UNS,10-20,1,1,100.0
1791,PNQP1-BLRP1,Industrial,UNS,20-40,1,1,100.0
1792,PNQP1-BLRP2,Zoom,UNS,20-40,1,0,0.0
1793,PNQP1-BLRP2,Zoom,UNS,40-60,1,1,100.0
1794,PNQP1-CCUP1,Industrial,?,5-10,1,1,100.0
1795,PNQP1-CCUP1,Industrial,TOLL,<5,1,0,0.0
1796,PNQP1-CCUP1,Industrial,UNS,10-20,1,0,0.0
1797,PNQP1-CCUP1,Zoom,?,10-20,2,1,50.0
1798,PNQP1-CCUP1,Zoom,UNS,10-20,2,1,50.0
1799,PNQP1-CCUP1,Zoom,UNS,20-40,1,1,100.0
1800,PNQP1-DELP1,Green,PITSTOP,>=60,1,1,100.0
1801,PNQP1-DELP1,Green,TOLL,<5,1,0,0.0
1802,PNQP1-DELP1,Industrial,?,10-20,3,3,100.0
1803,PNQP1-DELP1,Industrial,?,20-40,5,4,80.0
1804,PNQP1-DELP1,Industrial,?,40-60,1,0,0.0
1805,PNQP1-DELP1,Industrial,?,5-10,1,0,0.0
1806,PNQP1-DELP1,Industrial,?,>=60,1,1,100.0
1807,PNQP1-DELP1,Industrial,CHECKPOST,20-40,4,0,0.0
1808,PNQP1-DELP1,Industrial,CHECKPOST,>=60,1,1,100.0
1809,PNQP1-DELP1,Industrial,TOLL,10-20,8,3,37.5
1810,PNQP1-DELP1,Industrial,TOLL,20-40,5,5,100.0
1811,PNQP1-DELP1,Industrial,TOLL,>=60,1,1,100.0
1812,PNQP1-DELP1,Industrial,UNS,10-20,5,3,60.0
1813,PNQP1-DELP1,Industrial,UNS,20-40,1,1,100.0
1814,PNQP1-DELP1,Industrial,UNS,5-10,1,1,100.0
1815,PNQP1-DELP1,Zoom,?,10-20,4,2,50.0
1816,PNQP1-DELP1,Zoom,?,20-40,3,2,66.66666666666667
1817,PNQP1-DELP1,Zoom,?,5-10,1,1,100.0
1818,PNQP1-DELP1,Zoom,?,<5,1,0,0.0
1819,PNQP1-DELP1,Zoom,CHECKPOST,>=60,2,2,100.0
1820,PNQP1-DELP1,Zoom,TOLL,10-20,6,2,33.333333333333336
1821,PNQP1-DELP1,Zoom,TOLL,20-40,3,1,33.333333333333336
1822,PNQP1-DELP1,Zoom,TOLL,5-10,1,0,0.0
1823,PNQP1-DELP1,Zoom,TOLL,>=60,1,1,100.0
1824,PNQP1-DELP1,Zoom,UNS,10-20,3,3,100.0
1825,PNQP1-DELP1,Zoom,UNS,20-40,1,1,100.0
1826,PNQP1-DELP1,Zoom,UNS,5-10,1,1,100.0
1827,PNQP1-GAUP1,Green,?,>=60,1,1,100.0
1828,PNQP1-HYDP1,Green,?,>=60,1,1,100.0
1829,PNQP1-HYDP1,Green,TOLL,>=60,1,1,100.0
1830,PNQP1-HYDP1,Green,UNS,20-40,1,1,100.0
1831,PNQP1-IDRP1,Industrial,PITSTOP,>=60,1,1,100.0
1832,PNQP1-IXWP1,Industrial,?,10-20,5,1,20.0
1833,PNQP1-IXWP1,Industrial,?,20-40,3,3,100.0
1834,PNQP1-JHSP1,Green,?,10-20,1,1,100.0
1835,PNQP1-JHSP1,Green,?,20-40,1,1,100.0
1836,PNQP1-JHSP1,Green,?,<5,1,1,100.0
1837,PNQP1-JHSP1,Green,UNS,5-10,1,1,100.0
1838,PNQP1-KNUP1,Industrial,?,10-20,2,2,100.0
1839,PNQP1-KNUP1,Industrial,?,20-40,1,1,100.0
1840,PNQP1-KNUP1,Industrial,?,5-10,1,1,100.0
1841,PNQP1-KNUP1,Industrial,CHECKPOST,20-40,1,0,0.0
1842,PNQP1-KNUP1,Industrial,TOLL,10-20,1,0,0.0
1843,PNQP1-KNUP1,Industrial,UNS,20-40,1,1,100.0
1844,PNQP1-MAAP1,Green,TOLL,20-40,1,0,0.0
1845,PNQP1-MAAP1,Industrial,PITSTOP,>=60,1,1,100.0
1846,PNQP1-MAAP1,Industrial,TOLL,<5,1,0,0.0
1847,PNQP1-MAAP1,Industrial,UNS,10-20,4,3,75.0
1848,PNQP1-MAAP1,Industrial,UNS,<5,1,0,0.0
1849,PNQP1-MAAP1,Zoom,UNS,5-10,1,0,0.0
1850,PNQP1-NJPP1,Industrial,?,10-20,2,2,100.0
1851,PNQP1-NJPP1,Industrial,?,40-60,1,0,0.0
1852,PNQP1-NJPP1,Industrial,CHECKPOST,20-40,1,0,0.0
1853,PNQP1-NJPP1,Industrial,TOLL,10-20,1,1,100.0
1854,PNQP1-NJPP1,Industrial,TOLL,20-40,1,1,100.0
1855,PNQP1-NJPP1,Industrial,UNS,10-20,1,1,100.0
1856,PNQP1-NJPP1,Industrial,UNS,20-40,1,1,100.0
1857,PNQP1-NJPP1,Industrial,UNS,5-10,1,1,100.0
1858,PNQP1-PGHP1,Industrial,?,10-20,3,2,66.66666666666667
1859,PNQP1-PGHP1,Industrial,?,20-40,2,2,100.0
1860,PNQP1-PGHP1,Industrial,?,40-60,2,1,50.0
1861,PNQP1-PGHP1,Industrial,?,5-10,1,0,0.0
1862,PNQP1-PGHP1,Industrial,CHECKPOST,20-40,1,0,0.0
1863,PNQP1-PGHP1,Industrial,FUEL_PUMP,40-60,1,0,0.0
1864,PNQP1-PGHP1,Industrial,UNS,10-20,2,1,50.0
1865,PNQP1-PGHP1,Industrial,UNS,5-10,1,0,0.0
1866,PNQP1-SXVP1,Industrial,TOLL,10-20,1,0,0.0
1867,PNQP1-SXVP1,Industrial,TOLL,20-40,1,1,100.0
1868,PNQP1-SXVP1,Industrial,UNS,20-40,1,1,100.0
1869,RPRP1-IXWP1,Industrial,?,10-20,3,3,100.0
1870,RPRP1-IXWP1,Industrial,?,5-10,1,1,100.0
1871,RPRP1-KNUP1,Industrial,CHECKPOST,20-40,1,0,0.0
1872,RPRP1-KNUP1,Industrial,TOLL,10-20,2,0,0.0
1873,STVP1-BOMP1,DRY_RUN,?,<5,1,1,100.0
1874,SXVP1-AMBP1,Green,?,10-20,2,2,100.0
1875,SXVP1-AMBP1,Green,?,20-40,1,1,100.0
1876,SXVP1-AMBP1,Green,?,40-60,1,1,100.0
1877,SXVP1-AMBP1,Industrial,?,20-40,2,2,100.0
1878,SXVP1-AMBP1,Industrial,?,>=60,1,1,100.0
1879,SXVP1-AMBP1,Industrial,CHECKPOST,20-40,1,0,0.0
1880,SXVP1-AMBP1,Industrial,CHECKPOST,5-10,1,0,0.0
1881,SXVP1-AMBP1,Industrial,PITSTOP,20-40,2,2,100.0
1882,SXVP1-AMBP1,Industrial,TOLL,10-20,1,0,0.0
1883,SXVP1-AMBP1,Industrial,TOLL,20-40,2,0,0.0
1884,SXVP1-AMBP1,Industrial,TOLL,>=60,1,1,100.0
1885,SXVP1-AMBP1,Industrial,UNS,10-20,1,0,0.0
1886,SXVP1-AMBP1,Industrial,UNS,20-40,4,4,100.0
1887,SXVP1-AMBP1,Industrial,UNS,<5,1,0,0.0
1888,SXVP1-AMBP1,Zoom,?,20-40,1,1,100.0
1889,SXVP1-AMBP1,Zoom,?,<5,1,0,0.0
1890,SXVP1-AMBP1,Zoom,?,>=60,1,1,100.0
1891,SXVP1-AMBP1,Zoom,PITSTOP,20-40,1,1,100.0
1892,SXVP1-AMBP1,Zoom,TOLL,10-20,2,0,0.0
1893,SXVP1-AMBP1,Zoom,UNS,10-20,1,1,100.0
1894,SXVP1-AMBP1,Zoom,UNS,20-40,1,1,100.0
1895,SXVP1-AMDP1,Zoom,?,40-60,1,1,100.0
1896,SXVP1-AMDP1,Zoom,?,5-10,1,1,100.0
1897,SXVP1-AMDP1,Zoom,CHECKPOST,20-40,1,1,100.0
1898,SXVP1-AMDP1,Zoom,PITSTOP,20-40,1,0,0.0
1899,SXVP1-AMDP1,Zoom,TOLL,10-20,1,1,100.0
1900,SXVP1-AMDP1,Zoom,TOLL,20-40,1,1,100.0
1901,SXVP1-AMDP1,Zoom,TOLL,5-10,1,0,0.0
1902,SXVP1-AMDP1,Zoom,TOLL,<5,1,0,0.0
1903,SXVP1-AMDP1,Zoom,UNS,10-20,1,1,100.0
1904,SXVP1-AMDP1,Zoom,UNS,20-40,1,1,100.0
1905,SXVP1-AMDP1,Zoom,UNS,5-10,1,0,0.0
1906,SXVP1-AUBP1,Zoom,?,20-40,3,3,100.0
1907,SXVP1-AUBP1,Zoom,?,5-10,1,1,100.0
1908,SXVP1-AUBP1,Zoom,FUEL_PUMP,20-40,1,1,100.0
1909,SXVP1-AUBP1,Zoom,TOLL,10-20,3,3,100.0
1910,SXVP1-AUBP1,Zoom,TOLL,20-40,1,1,100.0
1911,SXVP1-AUBP1,Zoom,TOLL,>=60,1,1,100.0
1912,SXVP1-AUBP1,Zoom,UNS,10-20,2,1,50.0
1913,SXVP1-BOMP1,Green,?,>=60,1,1,100.0
1914,SXVP1-BOMP1,Green,PITSTOP,20-40,1,1,100.0
1915,SXVP1-BOMP1,Green,TOLL,10-20,1,1,100.0
1916,SXVP1-BOMP1,Industrial,CHECKPOST,10-20,1,0,0.0
1917,SXVP1-BOMP1,Industrial,FUEL_PUMP,40-60,1,0,0.0
1918,SXVP1-BOMP1,Industrial,PITSTOP,20-40,1,0,0.0
1919,SXVP1-BOMP1,Industrial,TOLL,10-20,2,1,50.0
1920,SXVP1-BOMP1,Industrial,UNS,10-20,1,1,100.0
1921,SXVP1-BOMP1,Industrial,UNS,20-40,1,1,100.0
1922,SXVP1-BOMP1,Industrial,UNS,40-60,1,1,100.0
1923,SXVP1-BOMP1,Zoom,FUEL_PUMP,20-40,1,0,0.0
1924,SXVP1-BOMP1,Zoom,TOLL,10-20,1,1,100.0
1925,SXVP1-CCUP1,Zoom,?,10-20,1,1,100.0
1926,SXVP1-CCUP1,Zoom,UNS,10-20,2,2,100.0
1927,SXVP1-CCUP1,Zoom,UNS,20-40,1,1,100.0
1928,SXVP1-DELP1,Green,?,40-60,1,1,100.0
1929,SXVP1-DELP1,Green,CHECKPOST,10-20,1,0,0.0
1930,SXVP1-DELP1,Green,FUEL_PUMP,20-40,1,0,0.0
1931,SXVP1-DELP1,Green,TOLL,10-20,2,1,50.0
1932,SXVP1-DELP1,Green,TOLL,40-60,1,1,100.0
1933,SXVP1-DELP1,Industrial,?,10-20,8,8,100.0
1934,SXVP1-DELP1,Industrial,?,20-40,3,3,100.0
1935,SXVP1-DELP1,Industrial,?,>=60,1,1,100.0
1936,SXVP1-DELP1,Industrial,CHECKPOST,10-20,1,0,0.0
1937,SXVP1-DELP1,Industrial,CHECKPOST,40-60,1,1,100.0
1938,SXVP1-DELP1,Industrial,CHECKPOST,5-10,2,1,50.0
1939,SXVP1-DELP1,Industrial,CHECKPOST,>=60,1,1,100.0
1940,SXVP1-DELP1,Industrial,FUEL_PUMP,20-40,1,0,0.0
1941,SXVP1-DELP1,Industrial,PITSTOP,10-20,1,0,0.0
1942,SXVP1-DELP1,Industrial,PITSTOP,20-40,2,2,100.0
1943,SXVP1-DELP1,Industrial,TOLL,10-20,5,1,20.0
1944,SXVP1-DELP1,Industrial,TOLL,20-40,4,1,25.0
1945,SXVP1-DELP1,Industrial,UNS,10-20,10,5,50.0
1946,SXVP1-DELP1,Industrial,UNS,20-40,4,4,100.0
1947,SXVP1-DELP1,Industrial,UNS,5-10,3,0,0.0
1948,SXVP1-DELP1,Industrial,UNS,>=60,1,1,100.0
1949,SXVP1-DELP1,Zoom,CHECKPOST,20-40,1,0,0.0
1950,SXVP1-DELP1,Zoom,TOLL,10-20,1,0,0.0
1951,SXVP1-DELP1,Zoom,TOLL,20-40,1,0,0.0
1952,SXVP1-DELP1,Zoom,TOLL,>=60,1,1,100.0
1953,SXVP1-DELP1,Zoom,UNS,10-20,1,0,0.0
1954,SXVP1-DELP1,Zoom,UNS,5-10,1,0,0.0
1955,SXVP1-DELP1,Zoom,UNS,<5,1,0,0.0
1956,SXVP1-JAIP1,Zoom,?,10-20,1,1,100.0
1957,SXVP1-JAIP1,Zoom,TOLL,20-40,1,0,0.0
1958,SXVP1-MZUP1,Industrial,?,10-20,5,5,100.0
1959,SXVP1-MZUP1,Industrial,TOLL,5-10,1,0,0.0
1960,SXVP1-MZUP1,Industrial,UNS,10-20,1,0,0.0
1961,SXVP1-MZUP1,Industrial,UNS,20-40,1,1,100.0
1962,SXVP1-PGHP1,Industrial,?,10-20,1,0,0.0
1963,SXVP1-PGHP1,Industrial,?,5-10,1,0,0.0
1964,SXVP1-PGHP1,Industrial,FUEL_PUMP,20-40,1,0,0.0
1965,SXVP1-PGHP1,Industrial,UNS,10-20,1,1,100.0
1966,VAPP1-BLRP1,Industrial,?,10-20,2,1,50.0
1967,VAPP1-BLRP1,Industrial,?,5-10,2,2,100.0
1968,VAPP1-BLRP1,Industrial,?,<5,1,0,0.0
1969,VAPP1-BLRP1,Industrial,CHECKPOST,<5,2,0,0.0
1970,VAPP1-BLRP1,Industrial,FUEL_PUMP,40-60,1,0,0.0
1971,VAPP1-BLRP1,Industrial,FUEL_PUMP,>=60,2,2,100.0
1972,VAPP1-BLRP1,Industrial,PITSTOP,<5,1,0,0.0
1973,VAPP1-BLRP1,Industrial,TOLL,10-20,1,0,0.0
1974,VAPP1-BLRP1,Industrial,TOLL,40-60,2,2,100.0
1975,VAPP1-BLRP1,Industrial,UNS,10-20,1,0,0.0
1976,VAPP1-BLRP1,Industrial,UNS,20-40,2,1,50.0
1977,VAPP1-BLRP1,Industrial,UNS,5-10,1,1,100.0
1978,VAPP1-CCUP1,Industrial,TOLL,20-40,1,1,100.0
1979,VAPP1-CCUP1,Industrial,UNS,<5,1,0,0.0
1980,VAPP1-DELP1,Zoom,TOLL,10-20,1,0,0.0
1981,VAPP1-DELP1,Zoom,UNS,10-20,2,0,0.0
1982,VAPP1-DELP1,Zoom,UNS,5-10,1,0,0.0
1983,VAPP1-HYDP1,Industrial,TOLL,5-10,1,0,0.0
1984,VAPP1-HYDP1,Industrial,UNS,10-20,1,0,0.0
1985,VAPP1-HYDP1,Industrial,UNS,>=60,1,1,100.0
1986,VAPP1-HYDP2,Industrial,?,10-20,1,1,100.0
1987,VAPP1-HYDP2,Industrial,UNS,10-20,1,1,100.0
1988,VAPP1-MAAP1,Industrial,UNS,10-20,1,1,100.0
1989,VAPP1-MAAP1,Industrial,UNS,20-40,1,1,100.0
1990,VGAP1-AUBP1,Industrial,?,10-20,2,2,100.0
1991,VGAP1-AUBP1,Industrial,UNS,10-20,1,0,0.0
1992,VGAP1-AUBP1,Industrial,UNS,40-60,1,1,100.0
1993,VGAP1-AUBP1,Industrial,UNS,5-10,1,1,100.0
1994,VGAP1-BHCP1,Industrial,TOLL,20-40,1,1,100.0
1995,VGAP1-BHCP1,Industrial,UNS,10-20,1,0,0.0
1996,VGAP1-BOMP1,Industrial,?,10-20,1,1,100.0
1997,VGAP1-BOMP1,Industrial,TOLL,10-20,1,1,100.0
1998,VGAP1-BOMP1,Industrial,UNS,20-40,2,2,100.0
1999,VGAP1-DBDP1,Industrial,?,10-20,4,4,100.0
2000,VGAP1-DBDP1,Industrial,?,40-60,1,1,100.0
2001,VGAP1-DBDP1,Industrial,?,5-10,2,2,100.0
2002,VGAP1-DBDP1,Industrial,TOLL,5-10,1,0,0.0
2003,VGAP1-DBDP1,Industrial,UNS,10-20,1,1,100.0
2004,VGAP1-DELP1,Industrial,?,10-20,1,0,0.0
2005,VGAP1-DELP1,Industrial,?,40-60,1,1,100.0
2006,VGAP1-DELP1,Industrial,CHECKPOST,20-40,1,0,0.0
2007,VGAP1-DELP1,Industrial,CHECKPOST,40-60,1,1,100.0
2008,VGAP1-DELP1,Industrial,FUEL_PUMP,20-40,1,0,0.0
2009,VGAP1-DELP1,Industrial,FUEL_PUMP,40-60,1,1,100.0
2010,VGAP1-DELP1,Industrial,FUEL_PUMP,5-10,1,0,0.0
2011,VGAP1-DELP1,Industrial,PITSTOP,>=60,1,1,100.0
2012,VGAP1-DELP1,Industrial,TOLL,10-20,3,0,0.0
2013,VGAP1-DELP1,Industrial,TOLL,20-40,3,0,0.0
2014,VGAP1-DELP1,Industrial,TOLL,<5,1,0,0.0
2015,VGAP1-DELP1,Industrial,TOLL,>=60,1,1,100.0
2016,VGAP1-DELP1,Industrial,UNS,10-20,1,0,0.0
2017,VGAP1-DELP1,Industrial,UNS,20-40,1,1,100.0
2018,VGAP1-DELP1,Industrial,UNS,<5,1,0,0.0
2019,VGAP1-GAUP1,Industrial,?,10-20,3,2,66.66666666666667
2020,VGAP1-GAUP1,Industrial,?,20-40,1,1,100.0
2021,VGAP1-GAUP1,Industrial,FUEL_PUMP,10-20,1,0,0.0
2022,VGAP1-GAUP1,Industrial,UNS,10-20,1,0,0.0
2023,VGAP1-MAAP1,Industrial,UNS,10-20,1,0,0.0
2024,VGAP1-MAAP1,Industrial,UNS,20-40,1,0,0.0
2025,VGAP1-PGHP1,Industrial,?,10-20,3,3,100.0
2026,VGAP1-PGHP1,Industrial,?,20-40,1,0,0.0
2027,VGAP1-PGHP1,Industrial,?,40-60,1,1,100.0
2028,VGAP1-PGHP1,Industrial,?,<5,1,0,0.0
2029,VGAP1-PGHP1,Industrial,?,>=60,1,1,100.0
2030,VGAP1-PGHP1,Industrial,CHECKPOST,10-20,1,0,0.0
2031,VGAP1-PGHP1,Industrial,CHECKPOST,5-10,1,0,0.0
2032,VGAP1-PGHP1,Industrial,FUEL_PUMP,20-40,1,0,0.0
2033,VGAP1-PGHP1,Industrial,TOLL,10-20,4,2,50.0
2034,VGAP1-PGHP1,Industrial,TOLL,20-40,2,1,50.0
2035,VGAP1-PGHP1,Industrial,TOLL,40-60,1,1,100.0
2036,VGAP1-PGHP1,Industrial,TOLL,5-10,1,0,0.0
2037,VGAP1-PGHP1,Industrial,UNS,10-20,1,1,100.0
2038,VGAP1-PGHP1,Industrial,UNS,20-40,1,0,0.0
2039,VGAP1-PNQP1,Industrial,?,10-20,1,1,100.0
2040,VGAP1-PNQP1,Industrial,CHECKPOST,10-20,1,0,0.0
2041,VGAP1-PNQP1,Industrial,UNS,20-40,1,0,0.0
2042,VGAP1-PNQP1,Industrial,UNS,40-60,1,1,100.0
2043,VTZP1-AMDP1,Industrial,?,10-20,1,1,100.0
2044,VTZP1-AMDP1,Industrial,?,40-60,1,1,100.0
2045,VTZP1-AMDP1,Industrial,CHECKPOST,10-20,1,0,0.0
2046,VTZP1-AMDP1,Industrial,UNS,10-20,1,0,0.0
2047,VTZP1-AMDP1,Industrial,UNS,<5,1,0,0.0
2048,VTZP1-BLRP1,Industrial,?,10-20,2,2,100.0
2049,VTZP1-BLRP1,Industrial,?,20-40,2,2,100.0
2050,VTZP1-BLRP1,Industrial,?,5-10,1,1,100.0
2051,VTZP1-BLRP1,Industrial,?,<5,1,0,0.0
2052,VTZP1-BLRP1,Industrial,UNS,20-40,1,1,100.0
2053,VTZP1-HYDP1,Zoom,PITSTOP,10-20,1,1,100.0
2054,VTZP1-HYDP1,Zoom,UNS,10-20,1,1,100.0
